<?xml version="1.0" standalone="no"?>
<!DOCTYPE svg PUBLIC "-//W3C//DTD SVG 1.1//EN" "http://www.w3.org/Graphics/SVG/1.1/DTD/svg11.dtd" >
<svg xmlns="http://www.w3.org/2000/svg">
<metadata></metadata>
<defs>
<font id="neris-bold" horiz-adv-x="1136" >
<font-face units-per-em="2048" ascent="1546" descent="-502" />
<missing-glyph horiz-adv-x="425" />
<glyph horiz-adv-x="0" />
<glyph unicode="&#xd;" horiz-adv-x="901" />
<glyph unicode=" "  horiz-adv-x="425" />
<glyph unicode="&#x09;" horiz-adv-x="425" />
<glyph unicode="&#xa0;" horiz-adv-x="425" />
<glyph unicode="!" horiz-adv-x="542" d="M139 125q0 69 37.5 108t104.5 39t105 -39t38 -108t-38 -108.5t-105 -39.5t-104.5 39.5t-37.5 108.5zM152 920v491q0 23 22 23h197q22 0 22 -23v-491q0 -82 -18 -266t-21 -240q0 -23 -22 -23h-121q-23 0 -23 23q-3 63 -19.5 244.5t-16.5 261.5z" />
<glyph unicode="&#x22;" horiz-adv-x="761" d="M117 1307v139q0 22 22 22h156q22 0 22 -22v-139q0 -39 -14 -140t-16 -116q-3 -21 -23 -21h-92q-22 0 -25 21q-2 30 -16 124.5t-14 131.5zM444 1307v139q0 22 23 22h156q22 0 22 -22v-139q0 -39 -14.5 -138.5t-16.5 -117.5q-4 -21 -22 -21h-92q-22 0 -25 21 q-2 30 -16.5 124.5t-14.5 131.5z" />
<glyph unicode="#" horiz-adv-x="1525" d="M96 322l23 159q3 21 22 21h209l60 428h-205q-26 0 -23 24l19 160q3 21 22 21h215l39 276q3 21 23 21h168q23 0 20 -25l-37 -272h340l39 276q3 21 23 21h168q23 0 20 -25l-37 -272h205q26 0 23 -25l-19 -160q-3 -20 -22 -20h-215l-60 -428h209q24 0 21 -25l-23 -160 q-3 -20 -23 -20h-213l-38 -277q-3 -20 -23 -20h-168q-23 0 -20 25l36 272h-342l-38 -277q-3 -20 -23 -20h-166q-23 0 -20 25l37 272h-205q-24 0 -21 25zM561 502h342l60 428h-340z" />
<glyph unicode="$" horiz-adv-x="1243" d="M111 111l53 157q11 22 29 13l112 -37q168 -54 322 -54q123 0 200.5 49t77.5 148q0 117 -203 193l-229 86q-189 70 -265.5 160t-76.5 239q0 157 98 255.5t271 123.5v186q0 23 22 23h185q22 0 22 -23v-184q89 -10 205 -45l119 -39q23 -10 14 -29l-55 -155q-11 -21 -29 -15 l-109 35q-137 43 -260 43q-111 0 -179 -48.5t-68 -127.5q0 -65 45 -112t153 -87l228 -84q186 -70 267 -158t81 -237q0 -168 -103 -272t-288 -129v-187q0 -22 -23 -22h-186q-23 0 -23 22v183q-126 11 -287 65l-106 35q-23 10 -14 29z" />
<glyph unicode="%" horiz-adv-x="1579" d="M100 1124q0 146 84.5 229t227.5 83t227 -83t84 -229q0 -145 -84.5 -228t-226.5 -83t-227 83t-85 228zM218 8q-5 8 3 19l936 1372q11 14 27 14h157q13 0 18 -8.5t-3 -18.5l-936 -1372q-11 -14 -27 -14h-157q-13 0 -18 8zM276 1124q0 -67 36.5 -108t99.5 -41q62 0 98.5 41 t36.5 108q0 72 -36 111t-99 39q-65 0 -100.5 -39t-35.5 -111zM856 289q0 145 83.5 227t227.5 82t227 -82t83 -227q0 -146 -83.5 -229t-226.5 -83t-227 83.5t-84 228.5zM1032 289q0 -67 36.5 -107.5t98.5 -40.5q64 0 100 40.5t36 107.5q0 69 -35.5 107t-100.5 38 q-63 0 -99 -38t-36 -107z" />
<glyph unicode="&#x26;" horiz-adv-x="1452" d="M94 322q0 103 45.5 182t155.5 162l102 82q-70 86 -100.5 161t-30.5 160q0 177 115.5 280t310.5 103q126 0 262 -45l105 -35q23 -10 14 -29l-53 -151q-11 -21 -29 -12l-98 32q-44 13 -66 18.5t-58 10t-77 4.5q-95 0 -152 -47.5t-57 -128.5q0 -54 25 -105.5t88 -119.5 l342 -377l39 31q63 59 84.5 90t21.5 78v59h-127q-22 0 -22 23v155q0 23 22 23h320q22 0 22 -23v-237q0 -76 -20 -131t-59.5 -99.5t-114.5 -103.5l-25 -21l258 -282q9 -12 5.5 -20.5t-17.5 -8.5h-225q-18 0 -27 12l-160 172l-98 -73q-95 -72 -178.5 -103t-177.5 -31 q-171 0 -268 92.5t-97 252.5zM313 322q0 -63 39 -99.5t107 -36.5q61 0 114.5 22t118.5 75l78 57l-233 254l-134 -105q-51 -43 -70.5 -80.5t-19.5 -86.5z" />
<glyph unicode="'" horiz-adv-x="434" d="M117 1307v139q0 22 22 22h156q22 0 22 -22v-139q0 -39 -14 -140t-16 -116q-3 -21 -23 -21h-92q-22 0 -25 21q-2 30 -16 124.5t-14 131.5z" />
<glyph unicode="(" horiz-adv-x="737" d="M186 670q0 467 201 856q8 16 27 16h166q12 0 17 -7t-1 -19q-96 -211 -148.5 -409.5t-52.5 -436.5q0 -239 52.5 -438t148.5 -410q6 -12 1 -19.5t-17 -7.5h-166q-18 0 -27 17q-201 389 -201 858z" />
<glyph unicode=")" horiz-adv-x="737" d="M140.5 -197.5q-5.5 7.5 0.5 19.5q96 211 148.5 410t52.5 438q0 238 -52.5 436.5t-148.5 409.5q-6 12 -0.5 19t17.5 7h166q18 0 26 -16q201 -389 201 -856q0 -469 -201 -858q-8 -17 -26 -17h-166q-12 0 -17.5 7.5z" />
<glyph unicode="*" horiz-adv-x="837" d="M86 1100v106q0 23 23 23h102q42 0 96 -12q6 -2 8 2t-2 8q-44 44 -59 69l-82 146q-6 10 -1.5 18t17.5 8h121q19 0 27 -16l45 -78q22 -45 31 -90q1 -6 4 -7.5t6 1t4 8.5q11 49 29 84l47 82q8 16 26 16h121q14 0 18 -8t-3 -18l-82 -146q-19 -34 -58 -69q-4 -4 -4 -6 q0 -6 23 0q46 8 80 8h106q23 0 23 -23v-106q0 -23 -23 -23h-106q-15 0 -32 2.5t-37.5 7t-25.5 5.5q-6 2 -8 -2.5t2 -10.5q42 -37 62 -69l80 -146q6 -10 1 -18t-18 -8h-117q-18 0 -26 16l-45 78q-25 47 -33 90q-1 7 -4 9.5t-6 0t-4 -9.5q-7 -39 -33 -90l-45 -78 q-8 -16 -27 -16h-117q-13 0 -17.5 8t1.5 18l80 142q17 33 59 75q6 4 3 9.5t-9 3.5q-53 -17 -96 -17h-102q-23 0 -23 23z" />
<glyph unicode="+" horiz-adv-x="1292" d="M152 455v159q0 23 22 23h367v397q0 23 22 23h166q23 0 23 -23v-397h366q23 0 23 -23v-159q0 -23 -23 -23h-366v-399q0 -23 -23 -23h-166q-22 0 -22 23v399h-367q-22 0 -22 23z" />
<glyph unicode="," horiz-adv-x="505" d="M104 -289h144l80 156q69 127 69 237q0 77 -38.5 121.5t-104.5 44.5q-69 0 -107 -38.5t-38 -110.5q0 -50 24.5 -85.5t63.5 -47.5q28 -8 31.5 -23t-15.5 -47z" />
<glyph unicode="-" horiz-adv-x="894" d="M152 457v157q0 23 22 23h547q22 0 22 -23v-157q0 -23 -22 -23h-547q-22 0 -22 23z" />
<glyph unicode="." horiz-adv-x="522" d="M119 125q0 69 37 108t104 39t105 -39t38 -108t-38 -108.5t-105 -39.5t-104 39.5t-37 108.5z" />
<glyph unicode="/" horiz-adv-x="1069" d="M94 -178l682 1704q6 18 25 18h176q28 0 18 -26l-684 -1704q-6 -19 -24 -19h-174q-29 0 -19 27z" />
<glyph unicode="0" horiz-adv-x="1312" d="M109 715q0 342 146 539.5t400 197.5q256 0 402.5 -197.5t146.5 -539.5t-146.5 -540t-402.5 -198q-254 0 -400 198t-146 540zM340 715q0 -251 83 -391t232 -140q151 0 234.5 140t83.5 391q0 250 -84 391t-234 141q-149 0 -232 -141t-83 -391z" />
<glyph unicode="1" horiz-adv-x="731" d="M80 1235q-10 20 12 29l426 182q16 5 31 -4l12 -10q12 -9 12 -27v-1382q0 -23 -22 -23h-182q-23 0 -23 23v958q0 63 10 141q3 23 -16 23q-2 0 -6 -1t-6 -1q-6 -2 -14.5 -7t-10.5 -6l-135 -59q-20 -10 -29 12z" />
<glyph unicode="2" horiz-adv-x="1191" d="M127 23v98q0 189 64.5 325t201.5 226l324 215q119 80 119 172q0 86 -64 137t-174 51q-134 0 -258 -43l-119 -39q-19 -6 -26 15l-52 153q-10 20 15 27l114 39q175 53 326 53q219 0 344 -104t125 -289q0 -102 -57.5 -185t-180.5 -163l-325 -219q-73 -50 -109.5 -125 t-36.5 -164h666q23 0 23 -23v-157q0 -23 -23 -23h-874q-23 0 -23 23z" />
<glyph unicode="3" horiz-adv-x="1196" d="M113 102l55 150q9 21 29 14l116 -39q134 -43 258 -43q129 0 205 63.5t76 170.5q0 108 -72 169.5t-200 61.5h-99q-22 0 -22 23v157q0 23 22 23h97q107 0 168 51t61 137q0 96 -64 151.5t-172 55.5q-106 0 -231 -39l-102 -34q-19 -6 -29 14l-51 151q-10 22 14 29l104 35 q146 49 295 49q217 0 341 -103t124 -286q0 -106 -44 -176t-136 -113q-15 -8 -15 -16.5t15 -14.5q112 -45 168.5 -135.5t56.5 -214.5q0 -193 -137 -304.5t-373 -111.5q-142 0 -323 56l-121 39q-23 10 -14 30z" />
<glyph unicode="4" horiz-adv-x="1271" d="M90 389v172q0 19 10 29q89 103 146 182l379 488q39 50 104 157q12 15 29 15h248q22 0 22 -23v-840h127q23 0 23 -22v-158q0 -22 -23 -22h-127v-344q0 -23 -22 -23h-185q-22 0 -22 23v344h-686q-23 0 -23 22zM348 578.5q4 -9.5 17 -9.5h434v355q0 95 12 200q3 19 -8 22.5 t-23 -13.5l-331 -422q-51 -70 -95 -111q-10 -12 -6 -21.5z" />
<glyph unicode="5" horiz-adv-x="1222" d="M121 104l57 150q9 22 29 12l115 -39q137 -43 264 -43q136 0 214 71.5t81 197.5q2 115 -68 180t-205 65q-69 0 -178 -16l-180 -25q-14 -2 -29 9l-16 16q-12 9 -12 27v700q0 23 22 23h791q12 0 17 -7.5t1 -17.5l-45 -160q-6 -18 -27 -18h-532v-215q0 -80 -4 -113 q-3 -16 3 -19t25 1l58 8q76 12 143 12q217 2 342 -118t125 -332q0 -223 -139.5 -349.5t-386.5 -126.5q-143 0 -330 58l-121 39q-23 10 -14 30z" />
<glyph unicode="6" horiz-adv-x="1261" d="M109 471q0 173 57 313t207 340l215 293q12 15 26 15h220q15 0 19 -8t-5 -19l-281 -381q-46 -67 -106 -127q-14 -15 -7 -25.5t27 -1.5q95 50 224 50q196 0 324 -125.5t128 -341.5q0 -225 -138 -350.5t-386 -125.5q-252 0 -389 129.5t-135 364.5zM340 453 q0 -126 77.5 -197.5t215.5 -71.5t215.5 71.5t77.5 197.5q0 125 -77.5 195.5t-215.5 70.5q-139 0 -216 -70.5t-77 -195.5z" />
<glyph unicode="7" horiz-adv-x="1204" d="M96 1251v158q0 23 23 23h971q18 0 26 -17l8 -12q11 -17 0 -33q-67 -112 -137 -274l-455 -1080q-10 -16 -26 -16h-195q-12 0 -17 7.5t-1 19.5l428 1007q40 92 90 162q11 19 5 26t-30 7h-667q-23 0 -23 22z" />
<glyph unicode="8" horiz-adv-x="1280" d="M115 391q0 126 68.5 215.5t183.5 134.5q11 4 15 10t0 12t-15 11q-102 39 -154.5 116.5t-52.5 182.5q0 175 128.5 277t350.5 102t350.5 -102t128.5 -277q0 -106 -53 -183t-156 -116q-15 -8 -15 -17.5t15 -15.5q118 -45 187 -134.5t69 -215.5q0 -192 -140 -303t-386 -111 q-245 0 -384.5 110.5t-139.5 303.5zM346 412q0 -108 78 -168t215 -60q139 0 217 60t78 168q0 109 -82 173t-213 64t-212 -64t-81 -173zM391 1047q0 -89 66.5 -141t181.5 -52t181.5 52t66.5 141q0 94 -66 147t-182 53q-117 0 -182.5 -53t-65.5 -147z" />
<glyph unicode="9" horiz-adv-x="1261" d="M98 979q0 225 138 350t387 125q252 0 389 -129t135 -364q0 -173 -57.5 -313.5t-206.5 -340.5l-215 -293q-11 -14 -27 -14h-219q-15 0 -19 8t5 19l280 381q44 64 107 127q14 15 6.5 25t-27.5 1q-94 -49 -223 -49q-196 0 -324.5 126t-128.5 341zM330 979 q0 -125 77.5 -195.5t215.5 -70.5q139 0 215.5 70.5t76.5 195.5q0 126 -77 197t-215 71t-215.5 -71t-77.5 -197z" />
<glyph unicode=":" horiz-adv-x="501" d="M119 127q0 69 37 108t104 39t105 -39t38 -108t-38 -108t-105 -39t-104 39t-37 108zM119 868q0 69 37 108.5t104 39.5t105 -39.5t38 -108.5t-38 -108t-105 -39t-104 39t-37 108z" />
<glyph unicode=";" horiz-adv-x="514" d="M111 -283h143l80 156q69 127 69 238q0 76 -38.5 120.5t-104.5 44.5q-69 0 -107 -38.5t-38 -110.5q0 -50 24.5 -85.5t63.5 -47.5q28 -8 31.5 -23t-15.5 -47zM125 868q0 69 37 108.5t104 39.5t105.5 -39.5t38.5 -108.5t-38 -108t-106 -39q-67 0 -104 39t-37 108z" />
<glyph unicode="&#x3c;" horiz-adv-x="1294" d="M154 467v117q0 16 16 26l946 445q12 6 19.5 0.5t7.5 -17.5v-182q0 -17 -17 -27l-667 -305l667 -305q17 -10 17 -26v-181q0 -12 -7.5 -17t-19.5 1l-946 444q-16 10 -16 27z" />
<glyph unicode="=" horiz-adv-x="1234" d="M152 227v158q0 23 22 23h887q22 0 22 -23v-158q0 -22 -22 -22h-887q-22 0 -22 22zM152 686v158q0 22 22 22h887q22 0 22 -22v-158q0 -22 -22 -22h-887q-22 0 -22 22z" />
<glyph unicode="&#x3e;" horiz-adv-x="1294" d="M152 12v181q0 16 16 26l668 305l-668 305q-16 10 -16 27v182q0 12 7 17.5t19 -0.5l946 -445q17 -10 17 -26v-117q0 -17 -17 -27l-946 -444q-12 -6 -19 -1t-7 17z" />
<glyph unicode="?" horiz-adv-x="1159" d="M96 1331q-10 20 15 27l120 41q174 53 334 53q228 0 351.5 -100t123.5 -275q0 -100 -48.5 -180.5t-153.5 -155.5l-113 -79q-82 -62 -82 -154v-105q0 -22 -22 -22h-185q-22 0 -22 22v105q0 106 43 184.5t135 143.5l117 79q53 37 77.5 74t24.5 88q0 68 -69.5 112t-176.5 44 q-130 0 -264 -41l-119 -39q-18 -6 -28 14zM397 123q0 69 37.5 108t104.5 39t105 -39t38 -108t-38 -108.5t-105 -39.5t-104.5 39.5t-37.5 108.5z" />
<glyph unicode="@" horiz-adv-x="1775" d="M131 518q0 333 205 536t543 203q170 0 315.5 -53.5t245 -145.5t155.5 -218.5t56 -270.5q0 -152 -75 -229.5t-198 -77.5q-106 0 -172.5 59t-130.5 207q-34 77 -75.5 115.5t-110.5 38.5q-74 0 -120 -42.5t-46 -115.5q0 -76 48.5 -120t131.5 -44q41 0 111 17l6 2 q19 6 31 -12q41 -83 100 -125q23 -20 -4 -29l-86 -23q-71 -24 -162 -24q-175 0 -275 95t-100 263q0 162 93.5 255t261.5 93q111 0 189 -41.5t136 -134.5q35 -51 69 -119.5t54 -94t51 -25.5q30 0 50 26.5t20 85.5q0 211 -161 351.5t-408 140.5q-245 0 -395 -149.5 t-150 -393.5q0 -242 148 -390t392 -148q159 0 304 47l180 47q19 6 26 -15l46 -145q6 -22 -17 -29l-184 -51q-165 -51 -355 -51q-338 0 -540.5 202t-202.5 533z" />
<glyph unicode="A" horiz-adv-x="1478" d="M78 27l352 899q108 291 158 485q3 21 24 21h252q22 0 25 -19q53 -198 160 -487l352 -899q3 -7 3 -12q0 -15 -22 -15h-196q-19 0 -25 18l-100 256h-643l-101 -256q-6 -18 -24 -18h-197q-21 0 -21 15q0 5 3 12zM498 481h483l-109 269q-89 241 -116 378q-3 12 -10 16 q-4 2 -7 2l-7 -2q-7 -4 -9 -16q-26 -134 -119 -378z" />
<glyph unicode="B" horiz-adv-x="1335" d="M158 23v1386q0 23 22 23h551q215 0 338 -97.5t123 -269.5q0 -118 -55.5 -195t-135.5 -110q-21 -6 -21 -17.5t21 -17.5q46 -14 86.5 -40.5t75.5 -66.5t55.5 -100t20.5 -131q0 -183 -125.5 -285t-349.5 -102h-584q-22 0 -22 23zM389 207h373q113 0 176 53t63 148 q0 225 -313 225h-299v-426zM389 838h283q139 0 211.5 53t72.5 151q0 85 -60.5 134t-164.5 49h-342v-387z" />
<glyph unicode="C" horiz-adv-x="1263" d="M104 717q0 340 168 537.5t461 197.5q91 0 157 -10t142 -37l90 -31q21 -7 15 -26l-54 -158q-7 -20 -26 -14l-92 30q-93 32 -232 35q-186 0 -289.5 -138t-103.5 -386q0 -250 103.5 -388.5t289.5 -138.5q127 0 234 37l90 31q18 6 28 -14l56 -154q2 -6 2 -11q0 -13 -17 -18 l-90 -30q-85 -30 -151.5 -42t-151.5 -12q-292 0 -460.5 199t-168.5 541z" />
<glyph unicode="D" horiz-adv-x="1388" d="M158 23v1386q0 23 22 23h479q291 0 458 -193t167 -524q0 -327 -168.5 -521t-456.5 -194h-479q-22 0 -22 23zM389 207h270q182 0 285 133.5t103 374.5q0 242 -103 376t-285 134h-270v-1018z" />
<glyph unicode="E" horiz-adv-x="1241" d="M158 23v1386q0 23 22 23h938q12 0 18 -7t3 -18l-45 -164q-6 -18 -27 -18h-678v-387h569q23 0 23 -23v-160q0 -22 -23 -22h-569v-426h729q23 0 23 -23v-161q0 -23 -23 -23h-938q-22 0 -22 23z" />
<glyph unicode="F" horiz-adv-x="1224" d="M158 23v1386q0 23 22 23h932q12 0 18 -7q4 -5 4 -11q0 -3 -1 -7l-46 -164q-6 -18 -26 -18h-672v-445h584q22 0 22 -22v-162q0 -23 -22 -23h-584v-550q0 -23 -22 -23h-187q-22 0 -22 23z" />
<glyph unicode="G" horiz-adv-x="1372" d="M104 715q0 341 167.5 539t459.5 198q148 0 301 -49l94 -33q24 -10 15 -29l-58 -153q-9 -20 -28 -14l-90 30q-110 37 -234 37q-184 0 -287.5 -139t-103.5 -387t103.5 -386.5t287.5 -138.5q129 0 227 33l58 19v309h-248q-12 0 -17.5 6.5t-2.5 17.5l45 164q6 19 26 19h398 q22 0 22 -23v-620q0 -21 -18 -27l-88 -29l-101 -34q-84 -27 -147.5 -37.5t-153.5 -10.5q-292 0 -459.5 198.5t-167.5 539.5z" />
<glyph unicode="H" horiz-adv-x="1437" d="M158 23v1386q0 23 22 23h187q22 0 22 -23v-571h658v571q0 23 22 23h188q23 0 23 -23v-1386q0 -23 -23 -23h-188q-22 0 -22 23v610h-658v-610q0 -23 -22 -23h-187q-22 0 -22 23z" />
<glyph unicode="I" horiz-adv-x="546" d="M158 23v1386q0 23 22 23h187q22 0 22 -23v-1386q0 -23 -22 -23h-187q-22 0 -22 23z" />
<glyph unicode="J" horiz-adv-x="921" d="M86 59l53 156q10 20 29 14l57 -18q54 -21 129 -21q83 0 132 60t49 180v979q0 23 22 23h186q23 0 23 -23v-979q0 -212 -109.5 -332.5t-302.5 -120.5q-97 0 -198 35l-58 19q-15 7 -15 18q0 5 3 10z" />
<glyph unicode="K" horiz-adv-x="1366" d="M158 23v1386q0 23 22 23h187q22 0 22 -23v-571h45q105 0 205 76t172 194l190 309q12 15 29 15h205q12 0 16.5 -8t-2.5 -19l-239 -395q-57 -93 -132 -159.5t-153 -98.5q-11 -5 -11.5 -12.5t11.5 -12.5q173 -74 299 -281l256 -419q4 -7 4 -12q0 -4 -2 -7q-4 -8 -18 -8h-207 q-18 0 -29 14l-203 328q-77 130 -178.5 210.5t-210.5 80.5h-47v-610q0 -23 -22 -23h-187q-22 0 -22 23z" />
<glyph unicode="L" horiz-adv-x="1165" d="M158 23v1386q0 23 22 23h187q22 0 22 -23v-1202h649q23 0 23 -23v-161q0 -23 -23 -23h-858q-22 0 -22 23z" />
<glyph unicode="M" horiz-adv-x="1687" d="M158 23v1386q0 23 22 23h287q21 0 27 -19q23 -85 51 -151l205 -492q41 -104 79 -238q3 -11 9 -15.5t11.5 0t8.5 15.5q38 136 76 238l207 490q34 81 55 153q3 19 25 19h286q23 0 23 -23v-1386q0 -23 -23 -23h-186q-23 0 -23 23v663q0 254 19 393q3 20 -9.5 23t-19.5 -17 q-21 -58 -65 -163l-195 -459q-28 -67 -74 -203q-6 -18 -26 -18h-170q-19 0 -25 18q-46 136 -74 203l-194 459q-44 96 -68 163q-7 20 -18.5 17t-9.5 -23q20 -146 20 -393v-663q0 -23 -22 -23h-187q-22 0 -22 23z" />
<glyph unicode="N" horiz-adv-x="1470" d="M158 23v1386q0 23 22 23h246q17 0 27 -17q49 -110 108 -211l438 -723q45 -82 72 -137q7 -20 18.5 -15.5t8.5 23.5q-17 109 -17 281v776q0 23 23 23h186q23 0 23 -23v-1386q0 -23 -23 -23h-246q-16 0 -26 16q-41 98 -107 211l-438 723q-43 76 -72 137q-9 17 -20 13.5 t-8 -21.5q18 -138 18 -284v-772q0 -23 -22 -23h-189q-22 0 -22 23z" />
<glyph unicode="O" horiz-adv-x="1452" d="M104 717q0 340 166.5 537.5t456.5 197.5q289 0 456 -197.5t167 -537.5q0 -342 -167.5 -541t-455.5 -199q-290 0 -456.5 199t-166.5 541zM340 717q0 -247 102.5 -387t284.5 -140q181 0 283 140t102 387t-101.5 385.5t-283.5 138.5q-183 0 -285 -138t-102 -386z" />
<glyph unicode="P" horiz-adv-x="1296" d="M158 23v1386q0 23 22 23h522q233 0 363.5 -120.5t130.5 -334.5q0 -228 -151 -350.5t-435 -122.5h-221v-481q0 -23 -22 -23h-187q-22 0 -22 23zM389 709h221q171 0 261 69t90 199q0 117 -68.5 182.5t-190.5 65.5h-313v-516z" />
<glyph unicode="Q" horiz-adv-x="1454" d="M104 715q0 340 167.5 538.5t455.5 198.5t455.5 -198.5t167.5 -538.5q0 -211 -72.5 -371.5t-187.5 -220.5q-40 -19 0 -29q140 -47 251 -186l89 -119q6 -7 6 -14q0 -10 -11 -19l-137 -106q-8 -7 -15 -7q-10 0 -18 11l-92 121q-76 102 -178.5 152t-257.5 50 q-288 0 -455.5 199t-167.5 539zM340 715q0 -246 103 -385.5t284 -139.5t283 139.5t102 385.5q0 248 -102 387t-283 139q-182 0 -284.5 -139.5t-102.5 -386.5z" />
<glyph unicode="R" horiz-adv-x="1372" d="M158 23v1386q0 23 22 23h553q224 0 349.5 -110t125.5 -304q0 -134 -74 -229t-198 -140q-38 -17 -2 -37q116 -61 196 -237l146 -348q2 -5 2 -9q0 -6 -4 -10q-6 -8 -17 -8h-198q-17 0 -27 16l-110 265q-60 146 -145.5 212t-239.5 66h-148v-536q0 -23 -22 -23h-187 q-22 0 -22 23zM389 764h260q158 0 241 61.5t83 178.5q0 101 -65 161t-175 60h-344v-461z" />
<glyph unicode="S" horiz-adv-x="1243" d="M111 111l53 157q11 22 29 13l112 -37q168 -54 322 -54q123 0 200.5 49t77.5 148q0 117 -203 193l-229 86q-189 70 -265.5 160t-76.5 239q0 183 130 285t353 102q165 0 320 -51l119 -39q23 -10 14 -29l-55 -155q-11 -21 -29 -15l-109 35q-137 43 -260 43 q-111 0 -179 -48.5t-68 -127.5q0 -65 45 -112t153 -87l228 -84q186 -70 267 -158t81 -237q0 -196 -137 -303t-377 -107q-192 0 -396 70l-106 35q-17 7 -17 19q0 5 3 10z" />
<glyph unicode="T" horiz-adv-x="1308" d="M80 1247v162q0 23 22 23h1104q23 0 23 -23v-162q0 -22 -23 -22h-436v-1202q0 -23 -22 -23h-189q-22 0 -22 23v1202h-435q-22 0 -22 22z" />
<glyph unicode="U" horiz-adv-x="1376" d="M137 575v834q0 23 23 23h186q23 0 23 -23v-834q0 -184 83.5 -284.5t235.5 -100.5q151 0 234.5 100.5t83.5 284.5v834q0 23 22 23h189q22 0 22 -23v-834q0 -284 -145 -441t-406 -157t-406 157t-145 441z" />
<glyph unicode="V" horiz-adv-x="1437" d="M68 1405q-3 7 -3 12q0 15 21 15h197q18 0 24 -19l291 -733q73 -198 104 -365q2 -11 9.5 -15.5t15 0t8.5 15.5q31 167 107 365l288 733q6 19 25 19h199q21 0 21 -15q0 -5 -3 -12l-354 -897q-94 -252 -154 -490q-3 -18 -24 -18h-240q-22 0 -25 18q-71 264 -155 490z" />
<glyph unicode="W" horiz-adv-x="2037" d="M84 1407q-1 4 -1 7q-1 6 3 11q6 7 18 7h191q21 0 27 -19l206 -737q48 -177 62 -348q1 -10 8 -14t14.5 -0.5t8.5 14.5q22 176 71 348l223 737q6 19 27 19h152q20 0 26 -19l226 -737q55 -193 71 -348q1 -11 8 -14.5t13.5 0.5t7.5 14q14 165 63 348l205 737q6 19 27 19h192 q12 0 18 -7q4 -5 4 -11q0 -3 -1 -7l-283 -1022q-53 -195 -86 -365q-3 -20 -24 -20h-248q-22 0 -25 20q-32 172 -74 318l-145 485q-21 75 -35 168q-2 13 -8 18t-12 0t-8 -18q-2 -10 -37 -168l-146 -485q-45 -171 -73 -318q-3 -20 -25 -20h-248q-21 0 -24 20q-33 170 -86 365z " />
<glyph unicode="X" horiz-adv-x="1413" d="M118 8q-2 3 -1 7q0 6 4 12l315 534q58 103 133 148q18 14 0 26q-79 46 -129 144l-311 526q-7 11 -2.5 19t16.5 8h205q18 0 27 -15l311 -526q20 -38 41 0l309 524q8 17 27 17h207q12 0 16.5 -8t-2.5 -19l-309 -526q-53 -99 -131 -144q-8 -6 -8 -13.5t8 -12.5 q79 -48 133 -148l315 -534q4 -7 4 -12q0 -4 -2 -7q-4 -8 -16 -8h-207q-19 0 -27 14l-321 539q-6 12 -11.5 15.5t-11 0t-12.5 -15.5l-319 -539q-8 -14 -27 -14h-207q-13 0 -17 8z" />
<glyph unicode="Y" horiz-adv-x="1380" d="M72 1424q4 8 16 8h207q18 0 27 -15l221 -366q70 -118 131 -277q6 -15 17.5 -15t15.5 15q50 130 131 277l223 366q9 15 26 15h207q12 0 17 -8q2 -3 2 -7q0 -6 -4 -12l-303 -512q-66 -119 -92 -170t-57 -128.5t-40.5 -143t-9.5 -152.5v-276q0 -23 -23 -23h-188 q-23 0 -23 23v276q0 88 -9.5 154t-38.5 140.5t-57.5 130t-92.5 169.5l-301 512q-4 7 -4 12q0 4 2 7z" />
<glyph unicode="Z" horiz-adv-x="1271" d="M121 27q-4 7 -4.5 15t4.5 17q79 113 168 281l407 682q69 129 109 172q13 14 10 23.5t-20 9.5q-59 -2 -164 -2h-465q-23 0 -23 22v162q0 23 23 23h958q18 0 27 -17l6 -10q4 -8 4 -16t-4 -15q-99 -141 -168 -274l-411 -690q-56 -98 -113 -172q-12 -19 -8 -27t24 -6 q28 0 84.5 1t81.5 1h473q12 0 17.5 -7.5t1.5 -17.5l-45 -164q-6 -18 -27 -18h-913q-19 0 -27 16z" />
<glyph unicode="[" horiz-adv-x="737" d="M199 -182v1702q0 22 22 22h352q23 0 23 -22v-158q0 -23 -23 -23h-163v-1339h163q23 0 23 -23v-159q0 -23 -23 -23h-352q-22 0 -22 23z" />
<glyph unicode="\" horiz-adv-x="1069" d="M74 1518q-10 26 18 26h176q19 0 25 -18l682 -1704q10 -27 -19 -27h-174q-18 0 -24 19z" />
<glyph unicode="]" horiz-adv-x="737" d="M141 -23q0 23 23 23h164v1339h-164q-23 0 -23 23v158q0 22 23 22h352q23 0 23 -22v-1702q0 -23 -23 -23h-352q-23 0 -23 23v159z" />
<glyph unicode="^" horiz-adv-x="1038" d="M112 718q-5 7 1 19l305 662q10 16 26 16h150q17 0 27 -16l305 -662q6 -12 0.5 -19t-17.5 -7h-196q-19 0 -25 18l-168 410l-170 -410q-6 -18 -24 -18h-197q-12 0 -17 7z" />
<glyph unicode="_" horiz-adv-x="1046" d="M-27 -258q0 22 23 22h1057q22 0 22 -22v-158q0 -22 -22 -22h-1057q-23 0 -23 22v158z" />
<glyph unicode="`" horiz-adv-x="614" d="M112 1460q4 8 19 8h207q19 0 27 -16l139 -264q6 -12 1.5 -19.5t-18.5 -7.5h-151q-15 0 -27 15l-192 266q-9 10 -5 18z" />
<glyph unicode="a" horiz-adv-x="1054" d="M78 287q0 147 97 231t276 84h256v12q0 94 -59 143.5t-173 49.5q-87 0 -160 -21l-73 -22q-23 -6 -29 16l-45 152q-6 23 16 29l78 22q109 31 223 31q208 0 327.5 -103t119.5 -288v-600q0 -23 -23 -23h-102q-21 0 -27 18l-16 64q-6 15 -12.5 19.5t-15.5 1t-23 -16.5 q-98 -109 -281 -109q-169 0 -261.5 82t-92.5 228zM303 307q0 -60 40.5 -94.5t113.5 -34.5q122 0 186 59t64 173v14h-256q-73 0 -110.5 -31.5t-37.5 -85.5z" />
<glyph unicode="b" horiz-adv-x="1153" d="M137 129v1317q0 22 23 22h182q23 0 23 -22v-299q0 -139 -33 -229q-8 -22 3 -30t30 9q100 117 270 117q200 0 315 -138.5t115 -377.5q0 -242 -126 -381.5t-347 -139.5q-137 0 -256 52l-180 73q-19 10 -19 27zM362 248l62 -29q79 -35 168 -35q117 0 182.5 83t65.5 231 q0 146 -63.5 228.5t-174.5 82.5q-118 0 -179 -84t-61 -221v-256z" />
<glyph unicode="c" horiz-adv-x="970" d="M88 498q0 242 127 379t365 137q88 0 176 -25l88 -24q22 -6 16 -29l-47 -154q-7 -21 -27 -14l-69 18q-73 23 -137 23q-134 0 -200.5 -80.5t-66.5 -228.5q0 -151 66.5 -233.5t195.5 -82.5q68 0 152 23l68 20q21 6 28 -14l47 -154q1 -5 1 -9q0 -15 -17 -19l-90 -27 q-103 -27 -191 -27q-232 0 -358.5 139.5t-126.5 381.5z" />
<glyph unicode="d" horiz-adv-x="1153" d="M88 498q0 240 122 378t337 138q108 0 182 -35l59 -27v494q0 22 23 22h182q23 0 23 -22v-1423q0 -23 -23 -23h-102q-22 0 -25 18l-22 86q-3 9 -8.5 13t-14 1t-18.5 -14q-115 -127 -285 -127q-200 0 -315 140.5t-115 380.5zM313 498q0 -147 64 -230.5t178 -83.5 q112 0 174 83.5t62 217.5v260l-62 29q-75 35 -168 35q-117 0 -183 -82.5t-65 -228.5z" />
<glyph unicode="e" horiz-adv-x="1046" d="M88 496q0 241 126 379.5t349 138.5q184 0 289.5 -87t105.5 -239q0 -119 -73.5 -187t-227.5 -91l-321 -50q18 -83 78 -129.5t155 -46.5q97 0 162 21l90 22q23 6 29 -16l41 -154q6 -21 -17 -28l-94 -25q-111 -27 -209 -27q-229 0 -356 139t-127 380zM315 537l308 49 q110 18 110 98q0 61 -45 93t-129 32q-105 0 -168.5 -67.5t-75.5 -204.5z" />
<glyph unicode="f" horiz-adv-x="768" d="M86 813v158q0 22 23 22h100v133q0 171 94.5 268t261.5 97q59 0 135 -25l37 -12q16 -9 16 -21q0 -4 -1 -8l-50 -151q-7 -20 -26 -14l-33 10q-41 14 -78 14q-60 0 -94.5 -42.5t-34.5 -115.5v-133h230q22 0 22 -22v-158q0 -22 -22 -22h-230v-768q0 -23 -22 -23h-183 q-22 0 -22 23v768h-100q-23 0 -23 22z" />
<glyph unicode="g" horiz-adv-x="1142" d="M88 492q0 247 126 384.5t351 137.5q138 0 252 -47l182 -76q19 -6 19 -25v-858q0 -226 -128 -347.5t-364 -121.5q-127 0 -223 27l-100 28q-23 7 -17 29l47 152q7 21 27 14l80 -22q82 -23 176 -23q116 0 198.5 52t108.5 167q3 49 6.5 78.5t4.5 48.5q0 12 -8 15t-21 -9 q-109 -119 -283 -119q-201 0 -317.5 139.5t-116.5 375.5zM313 498q0 -142 62 -228t174 -86q117 0 179.5 81t62.5 229v251l-62 29q-68 35 -166 35q-119 0 -184.5 -81.5t-65.5 -229.5z" />
<glyph unicode="h" d="M137 23v1423q0 22 23 22h182q23 0 23 -22v-299q0 -134 -33 -234q-6 -18 2 -24.5t26 6.5q110 119 275 119q175 0 275 -103t100 -284v-604q0 -23 -23 -23h-182q-23 0 -23 23v579q0 98 -47 152.5t-131 54.5q-119 0 -178 -84t-61 -225v-477q0 -23 -23 -23h-182q-23 0 -23 23z " />
<glyph unicode="i" horiz-adv-x="573" d="M86 813v158q0 22 23 22h305q22 0 22 -22v-948q0 -23 -22 -23h-183q-22 0 -22 23v768h-100q-23 0 -23 22zM162 1348q0 64 36 100.5t101 36.5q64 0 99.5 -36t35.5 -101q0 -66 -35.5 -103t-99.5 -37q-65 0 -101 37t-36 103z" />
<glyph unicode="j" horiz-adv-x="573" d="M41 -303q-4 7 -4 13q0 10 12 18l47 32q113 73 113 197v834h-100q-23 0 -23 22v158q0 22 23 22h305q22 0 22 -22v-1014q0 -123 -56 -214t-175 -163l-51 -35q-8 -6 -15 -6q-10 0 -18 12zM164 1348q0 65 35.5 101t99.5 36t99.5 -36t35.5 -101q0 -66 -35.5 -103t-99.5 -37 t-99.5 37t-35.5 103z" />
<glyph unicode="k" horiz-adv-x="1095" d="M137 23v1423q0 22 23 22h182q23 0 23 -22v-842h30q36 0 66.5 13t59.5 42.5t45 50.5t44 62l135 207q11 14 29 14h201q13 0 17.5 -7.5t-1.5 -18.5l-180 -291q-85 -125 -178 -160q-6 -3 -6.5 -8t6.5 -8q113 -49 190 -166l189 -307q4 -6 4 -12q0 -4 -2 -7q-5 -8 -19 -8h-202 q-18 0 -29 14l-141 228q-51 78 -101 117.5t-127 39.5h-30v-376q0 -23 -23 -23h-182q-23 0 -23 23z" />
<glyph unicode="l" horiz-adv-x="583" d="M137 240v1206q0 22 23 22h182q23 0 23 -22v-1206q0 -56 41 -56h14q22 3 29 -12l61 -145q3 -7 3 -12q0 -12 -13 -19q-46 -19 -94 -19q-126 0 -197.5 69.5t-71.5 193.5z" />
<glyph unicode="m" horiz-adv-x="1722" d="M137 23v948q0 22 23 22h102q22 0 25 -20l18 -80q9 -19 19.5 -19t29.5 17q109 123 267 123q85 0 154 -37t112 -100q22 -20 35.5 -19.5t33.5 19.5q116 137 281 137q171 0 265.5 -102.5t94.5 -284.5v-604q0 -23 -22 -23h-184q-23 0 -23 23v579q0 99 -41 153t-121 54 q-114 0 -169.5 -81.5t-55.5 -227.5v-477q0 -23 -23 -23h-184q-22 0 -22 23v581q0 96 -42.5 150.5t-119.5 54.5q-115 0 -170 -81t-55 -228v-477q0 -23 -23 -23h-182q-23 0 -23 23z" />
<glyph unicode="n" d="M137 23v948q0 22 23 22h102q22 0 25 -20l18 -82q10 -18 19.5 -18t27.5 16q111 125 283 125q175 0 275 -103t100 -284v-604q0 -23 -23 -23h-182q-23 0 -23 23v579q0 97 -47.5 152t-130.5 55q-114 0 -176.5 -80t-62.5 -229v-477q0 -23 -23 -23h-182q-23 0 -23 23z" />
<glyph unicode="o" horiz-adv-x="1120" d="M88 498q0 237 127 376.5t346 139.5q218 0 344.5 -139.5t126.5 -376.5q0 -240 -126.5 -380.5t-344.5 -140.5q-219 0 -346 140.5t-127 380.5zM313 498q0 -148 65.5 -231t182.5 -83q114 0 180 83.5t66 230.5q0 146 -66 228.5t-180 82.5q-117 0 -182.5 -82.5t-65.5 -228.5z " />
<glyph unicode="p" horiz-adv-x="1153" d="M137 -418v1389q0 22 23 22h102q22 0 25 -18l22 -86q7 -17 17.5 -16.5t21.5 14.5q113 127 287 127q200 0 315 -138.5t115 -377.5q0 -242 -122 -381.5t-337 -139.5q-101 0 -186 39l-55 25v-459q0 -22 -23 -22h-182q-23 0 -23 22zM362 248l62 -29q69 -35 168 -35 q118 0 183 83t65 231q0 146 -64 228.5t-178 82.5q-113 0 -174.5 -84t-61.5 -221v-256z" />
<glyph unicode="q" horiz-adv-x="1142" d="M88 496q0 240 126 379t347 139q144 0 256 -49l180 -74q19 -9 19 -27v-1284q0 -22 -23 -22h-182q-23 0 -23 22v266q0 122 33 234q7 17 -2.5 24.5t-27.5 -8.5q-106 -119 -273 -119q-200 0 -315 139.5t-115 379.5zM313 496q0 -146 62 -229t172 -83q118 0 181 82t63 223v256 l-60 29q-86 35 -170 35q-118 0 -183 -82.5t-65 -230.5z" />
<glyph unicode="r" horiz-adv-x="806" d="M137 23v948q0 22 23 22h102q21 0 27 -18l33 -117q6 -12 11.5 -16.5t12.5 -2t16 12.5q63 81 138.5 120t185.5 42q23 0 23 -23v-160q0 -22 -23 -22q-168 -8 -244.5 -135t-76.5 -408v-243q0 -23 -23 -23h-182q-23 0 -23 23z" />
<glyph unicode="s" horiz-adv-x="974" d="M100 72l47 153q7 22 27 15l74 -21q119 -35 262 -35q74 0 116 27.5t42 75.5q0 37 -23 61t-74 39l-206 53q-128 32 -189 100.5t-61 178.5q0 139 98 217t276 78q129 0 254 -33l91 -23q22 -6 16 -28l-43 -154q-6 -22 -29 -16l-90 24q-86 25 -199 25q-70 0 -109.5 -24 t-39.5 -66q0 -68 92 -94l205 -54q133 -34 195.5 -103.5t62.5 -180.5q0 -145 -102 -227.5t-283 -82.5q-165 0 -313 43l-80 23q-18 6 -18 21q0 3 1 8z" />
<glyph unicode="t" horiz-adv-x="778" d="M86 813v158q0 22 23 22h100v236q0 18 18 24l183 62q6 1 10 1q16 0 16 -20v-303h230q22 0 22 -22v-158q0 -22 -22 -22h-230v-498q0 -52 21.5 -80.5t58.5 -28.5q29 0 53 9q22 10 31 -11l66 -139q9 -18 -11 -31q-65 -35 -139 -35q-146 0 -226.5 83t-80.5 233v498h-100 q-23 0 -23 22z" />
<glyph unicode="u" d="M127 367v604q0 22 23 22h182q22 0 22 -22v-580q0 -97 47.5 -152t130.5 -55q114 0 177 80.5t63 229.5v477q0 22 23 22h182q22 0 22 -22v-948q0 -23 -22 -23h-103q-21 0 -24 20l-19 82q-10 18 -19.5 18t-27.5 -16q-110 -124 -282 -124q-175 0 -275 103t-100 284z" />
<glyph unicode="v" horiz-adv-x="1126" d="M68 967q-2 5 -2 10t3 9q5 7 17 7h190q17 0 27 -16l146 -344q74 -198 98 -338q2 -11 9 -15.5t14 0t10 15.5q22 146 98 338l145 344q10 16 27 16h190q12 0 18 -7q3 -4 3 -10q0 -4 -2 -9l-203 -484q-110 -284 -158 -465q-6 -18 -26 -18h-217q-21 0 -27 18q-45 169 -158 465z " />
<glyph unicode="w" horiz-adv-x="1630" d="M82 969q-2 4 -2 8q0 5 3 9q5 7 17 7h185q20 0 26 -18l105 -359q45 -169 73 -327q2 -11 9 -15.5t14 0t10 15.5q13 52 99 362l108 324q6 18 25 18h123q18 0 24 -18l109 -324q67 -227 98 -362q3 -11 10 -15.5t14 0t9 15.5q25 142 73 327l105 359q6 18 27 18h184q12 0 17 -7 q3 -4 3 -9q0 -4 -2 -8l-168 -568q-73 -251 -104 -381q-3 -20 -25 -20h-225q-22 0 -25 18q-10 38 -31 110t-30 105l-74 218q-24 81 -37 149q-5 20 -14 19.5t-14 -19.5q-15 -82 -37 -149l-72 -218q-45 -144 -61 -213q-3 -20 -25 -20h-227q-22 0 -25 20q-27 111 -104 381z" />
<glyph unicode="x" horiz-adv-x="1097" d="M93 8q-2 4 -2 8q0 5 3 11l228 360q49 78 98 109q6 3 6 6q1 4 -2 7t-8.5 6t-7.5 5q-46 32 -86 94l-222 353q-6 11 -1 18.5t18 7.5h200q18 0 29 -14l186 -305q16 -26 33 0l187 305q11 14 28 14h201q13 0 17.5 -7.5t-1.5 -18.5l-221 -353q-51 -80 -96 -102q-7 -3 -7.5 -8 t5.5 -8q57 -37 98 -109l228 -360q3 -6 3 -11q0 -4 -2 -8q-5 -8 -18 -8h-203q-17 0 -28 14l-191 310q-17 22 -33 0l-190 -310q-11 -14 -29 -14h-202q-13 0 -18 8z" />
<glyph unicode="y" horiz-adv-x="1132" d="M68 967q-2 5 -2 10t3 9q5 7 17 7h190q17 0 27 -16l162 -387q64 -168 84 -299q3 -15 16 -15t17 17q26 141 88 297l159 387q10 16 27 16h191q12 0 17 -7q3 -4 3 -9t-2 -10l-563 -1389q-6 -18 -25 -18h-188q-12 0 -17.5 7t-1.5 19l109 258q27 72 30 142v22q0 60 -13 122 q-17 74 -56 175z" />
<glyph unicode="z" horiz-adv-x="985" d="M106 16q-4 8 -4 16t4 15q60 83 103 162l272 448q30 65 78 113q9 10 6.5 16.5t-16.5 6.5q-37 -2 -111 -2h-295q-22 0 -22 22v158q0 22 22 22h719q18 0 29 -14v-2q4 -8 4 -15q0 -9 -6 -16q-45 -64 -92 -151l-279 -461q-37 -65 -78 -111q-8 -9 -4.5 -15.5t15.5 -6.5 q21 0 58 1t54 1h297q12 0 17.5 -7.5t1.5 -17.5l-45 -160q-6 -18 -27 -18h-674q-19 0 -27 16z" />
<glyph unicode="{" horiz-adv-x="776" d="M117 592v158q0 22 22 22h15q50 0 78 31t28 86v309q0 164 96.5 259.5t266.5 101.5q22 0 22 -23v-158q0 -22 -22 -22q-72 -6 -112 -47.5t-40 -110.5v-309q0 -145 -100 -201q-29 -18 0 -35q100 -56 100 -204v-302q0 -72 40 -113.5t112 -47.5q22 0 22 -23v-158q0 -22 -22 -22 q-171 6 -267 101.5t-96 262.5v304q0 57 -28 87.5t-78 30.5h-15q-22 0 -22 23z" />
<glyph unicode="|" horiz-adv-x="606" d="M199 -420v1946q0 22 22 22h166q23 0 23 -22v-1946q0 -22 -23 -22h-166q-22 0 -22 22z" />
<glyph unicode="}" horiz-adv-x="776" d="M131 -37q0 23 23 23q72 6 111.5 47.5t39.5 113.5v302q0 148 101 204q29 17 0 35q-101 56 -101 201v309q0 69 -39.5 110.5t-111.5 47.5q-23 0 -23 22v158q0 23 23 23q170 -6 266 -101.5t96 -259.5v-309q0 -55 28.5 -86t78.5 -31h14q22 0 22 -22v-158q0 -23 -22 -23h-14 q-50 0 -78.5 -31t-28.5 -87v-304q0 -167 -95.5 -262.5t-266.5 -101.5q-23 0 -23 22v158z" />
<glyph unicode="~" horiz-adv-x="1144" d="M105.5 550.5q-4.5 7.5 3.5 18.5l98 170q82 138 223 138q82 0 145 -50l84 -69q32 -19 56 -19q42 0 59 39l47 80q11 14 29 14h172q13 0 17.5 -8t-3.5 -18l-98 -174q-76 -133 -221 -133q-81 0 -144 49l-92 69q-24 19 -47 19q-41 0 -63 -39l-47 -80q-11 -14 -29 -14h-172 q-13 0 -17.5 7.5z" />
<glyph unicode="&#xa1;" horiz-adv-x="542" d="M119 862q0 69 38 108.5t105 39.5t104 -39.5t37 -108.5t-37 -108t-104 -39t-105 39t-38 108zM150 68q0 82 17.5 266t20.5 239q0 23 23 23h121q22 0 22 -23q3 -64 20 -245t17 -260v-492q0 -22 -22 -22h-197q-22 0 -22 22v492z" />
<glyph unicode="&#xa2;" horiz-adv-x="966" d="M88 936q0 206 95 339.5t268 168.5v180q0 23 22 23h166q23 0 23 -23v-176q44 -6 90 -21l90 -24q22 -6 16 -29l-49 -151q-7 -22 -27 -15l-69 19q-73 20 -146 20q-126 0 -192 -82t-66 -229q0 -149 66.5 -231t191.5 -82q77 0 154 22l72 19q19 6 26 -15l47 -153q6 -23 -16 -29 l-90 -25q-47 -14 -98 -20v-180q0 -23 -23 -23h-166q-22 0 -22 23v186q-172 34 -267.5 167.5t-95.5 340.5z" />
<glyph unicode="&#xa3;" horiz-adv-x="1206" d="M68 606v160q0 22 22 22h166v209q0 213 124.5 334t338.5 121q116 0 227 -43l62 -20q23 -10 14 -29l-59 -154q-9 -21 -29 -14l-64 22q-83 27 -151 27q-108 0 -172 -64.5t-64 -179.5v-209h308q22 0 22 -22v-160q0 -22 -22 -22h-308v-144q0 -130 -51 -217q-7 -17 -1.5 -24 t20.5 -4q63 10 194 10h440q23 0 23 -23v-159q0 -23 -23 -23h-909q-18 0 -29 14l-8 13q-8 17 2 32l39 64q76 119 76 291v170h-166q-22 0 -22 22z" />
<glyph unicode="&#xa4;" horiz-adv-x="1284" d="M168 274q-16 16 0 33l137 137q-49 84 -49 189q0 101 49 188l-137 137q-16 16 0 33l115 117q16 16 32 0l142 -143q79 51 180 51q103 0 188 -53l142 143q16 16 32 0l117 -117q16 -17 0 -33l-145 -145q49 -81 49 -178q0 -99 -49 -180l145 -146q16 -17 0 -33l-117 -116 q-16 -16 -32 0l-144 143q-79 -49 -186 -49q-101 0 -178 47l-142 -143q-16 -16 -32 0zM442 633q0 -80 57 -137.5t138 -57.5t139 57.5t58 137.5q0 81 -57.5 137.5t-139.5 56.5t-138.5 -56t-56.5 -138z" />
<glyph unicode="&#xa5;" horiz-adv-x="1400" d="M81.5 1424q4.5 8 16.5 8h207q18 0 27 -15l221 -366q70 -118 131 -277q6 -15 17 -15t16 15q50 130 131 277l223 366q9 15 27 15h207q12 0 16.5 -8t-2.5 -19l-303 -512l-74 -135h191q22 0 22 -23v-123q0 -22 -22 -22h-269q-22 -62 -33 -117h302q22 0 22 -22v-123 q0 -23 -22 -23h-316v-6v-276q0 -23 -22 -23h-189q-22 0 -22 23v276v6h-316q-22 0 -22 23v123q0 22 22 22h301q-12 61 -32 117h-269q-22 0 -22 22v123q0 23 22 23h191q-28 57 -74 135l-301 512q-7 11 -2.5 19z" />
<glyph unicode="&#xa6;" horiz-adv-x="614" d="M199 311q0 23 22 23h174q23 0 23 -23v-731q0 -22 -23 -22h-174q-22 0 -22 22v731zM199 795v731q0 22 22 22h174q23 0 23 -22v-731q0 -23 -23 -23h-174q-22 0 -22 23z" />
<glyph unicode="&#xa7;" horiz-adv-x="1247" d="M113 -330l53 152q11 21 29 12l110 -37q154 -53 309 -53q128 0 200.5 40.5t72.5 113.5q0 102 -137 153l-330 129q-151 59 -220 149.5t-69 219.5q0 86 44.5 153.5t111.5 110.5q25 16 2 31q-66 51 -102.5 110.5t-36.5 145.5q0 166 125.5 259t349.5 93q160 0 311 -51l117 -39 q21 -11 12 -29l-53 -151q-11 -21 -29 -15l-109 35q-137 45 -247 45q-116 0 -181 -39.5t-65 -111.5q0 -100 141 -156l316 -125q148 -59 223.5 -149t75.5 -224q0 -91 -38 -158.5t-108 -103.5q-14 -8 -15.5 -13.5t11.5 -16.5q65 -51 98 -108t33 -142q0 -173 -133 -268t-371 -95 q-179 0 -383 70l-104 35q-23 10 -14 28zM350 559q0 -71 48.5 -118.5t156.5 -88.5l158 -61q82 -31 143.5 13.5t61.5 121.5q0 140 -189 211l-172 65q-75 28 -141 -17t-66 -126z" />
<glyph unicode="&#xa8;" horiz-adv-x="784" d="M86 1358q0 60 33.5 94.5t91.5 34.5q60 0 93.5 -34.5t33.5 -94.5q0 -64 -33 -97.5t-94 -33.5q-59 0 -92 33.5t-33 97.5zM449 1358q0 60 33 94.5t91 34.5q60 0 93.5 -34.5t33.5 -94.5q0 -64 -33 -97.5t-94 -33.5q-59 0 -91.5 33.5t-32.5 97.5z" />
<glyph unicode="&#xa9;" horiz-adv-x="1615" d="M88 715q0 331 198 534t521 203q160 0 294 -53.5t227.5 -149t145.5 -233t52 -301.5q0 -219 -89 -386.5t-252.5 -259.5t-377.5 -92q-213 0 -376.5 92t-253 259.5t-89.5 386.5zM219 715q0 -272 162 -439t426 -167q265 0 427.5 167t162.5 439t-162.5 439t-427.5 167 q-264 0 -426 -167t-162 -439zM457 717q0 184 94.5 291.5t257.5 107.5q91 0 170 -26l41 -15q23 -7 14 -28l-26 -82q-11 -21 -29 -15l-41 15q-60 18 -129 18q-99 0 -155 -69.5t-56 -196.5t56 -197.5t155 -70.5q79 0 127 18l43 12q20 7 27 -14l28 -82q10 -22 -14 -29l-43 -12 q-79 -27 -168 -27q-162 0 -257 108.5t-95 293.5z" />
<glyph unicode="&#xaa;" horiz-adv-x="827" d="M72 868q0 114 75.5 179t212.5 65h205v12q0 74 -47 116t-135 42q-62 0 -129 -18l-53 -17q-22 -6 -29 17l-31 106q-6 22 17 29l57 16q80 25 172 25q164 0 258 -83t94 -229v-464q0 -23 -22 -23h-84q-22 0 -25 21l-6 36q-7 24 -31 4q-80 -77 -227 -77q-129 0 -200.5 64.5 t-71.5 178.5zM82 317v113q0 23 22 23h609q22 0 22 -23v-113q0 -22 -22 -22h-609q-22 0 -22 22zM244 883q0 -47 32 -75t89 -28q200 0 200 181v12h-205q-116 0 -116 -90z" />
<glyph unicode="&#xab;" horiz-adv-x="1239" d="M139 496v6q0 17 8 28l250 342q12 15 27 15h197q15 0 19 -8.5t-5 -18.5l-262 -362l262 -363q9 -11 5 -18.5t-19 -7.5h-193q-16 0 -27 14l-254 344q-8 11 -8 29zM584 496v6q0 17 8 28l250 342q12 15 26 15h197q15 0 19 -8.5t-5 -18.5l-262 -362l262 -363q9 -11 5 -18.5 t-19 -7.5h-193q-15 0 -26 14l-254 344q-8 11 -8 29z" />
<glyph unicode="&#xae;" horiz-adv-x="1615" d="M88 715q0 331 198 534t521 203q160 0 294 -53.5t227.5 -149t145.5 -233t52 -301.5q0 -219 -89 -386.5t-252.5 -259.5t-377.5 -92q-213 0 -376.5 92t-253 259.5t-89.5 386.5zM219 715q0 -272 162 -439t426 -167q265 0 427.5 167t162.5 439t-162.5 439t-427.5 167 q-264 0 -426 -167t-162 -439zM541 367v698q0 22 22 22h285q119 0 184.5 -58.5t65.5 -162.5q0 -71 -39.5 -119.5t-102.5 -68.5q-21 -8 -2 -19q73 -46 103 -124l71 -164q6 -12 1 -19.5t-17 -7.5h-96q-18 0 -27 18l-49 121q-33 74 -75 106t-124 32h-65v-254q0 -23 -23 -23h-90 q-22 0 -22 23zM676 741h127q78 0 122 29.5t44 85.5q0 52 -33 77t-88 25h-172v-217z" />
<glyph unicode="&#xaf;" horiz-adv-x="751" d="M102 1253v115q0 23 23 23h502q22 0 22 -23v-115q0 -22 -22 -22h-502q-23 0 -23 22z" />
<glyph unicode="&#xb0;" horiz-adv-x="663" d="M55 1196q0 127 73 198.5t204 71.5q130 0 203 -71t73 -199q0 -129 -73 -201.5t-203 -72.5t-203.5 72.5t-73.5 201.5zM227 1196q0 -55 28.5 -85t76.5 -30q50 0 77 30t27 85q0 54 -27 83.5t-77 29.5t-77.5 -29.5t-27.5 -83.5z" />
<glyph unicode="&#xb1;" horiz-adv-x="1292" d="M152 627v159q0 23 22 23h367v397q0 23 22 23h166q23 0 23 -23v-397h366q23 0 23 -23v-159q0 -23 -23 -23h-366v-399q0 -23 -23 -23h-166q-22 0 -22 23v399h-367q-22 0 -22 23zM178 -4q0 22 23 22h886q23 0 23 -22v-158q0 -22 -23 -22h-886q-23 0 -23 22v158z" />
<glyph unicode="&#xb4;" horiz-adv-x="614" d="M111 1188l139 264q8 16 26 16h207q15 0 19.5 -8t-4.5 -18l-193 -266q-12 -15 -26 -15h-152q-29 0 -16 27z" />
<glyph unicode="&#xb5;" horiz-adv-x="1157" d="M137 -418v993q0 23 23 23q-13 0 -13 23v350q0 22 23 22h182q23 0 23 -22v-580q0 -97 47.5 -152t130.5 -55q114 0 177 80.5t63 229.5v477q0 22 22 22h182q23 0 23 -22v-948q0 -23 -23 -23h-102q-22 0 -25 20l-18 82q-10 18 -19.5 18t-27.5 -16q-110 -124 -283 -124 q-89 0 -157 26v-424q0 -22 -23 -22h-182q-23 0 -23 22z" />
<glyph unicode="&#xb6;" horiz-adv-x="1304" d="M195 1038q0 185 106 289.5t293 104.5h530q23 0 23 -23v-1386q0 -23 -23 -23h-118q-23 0 -23 23v1249h-166v-1249q0 -23 -22 -23h-121q-23 0 -23 23v626q-85 0 -164 24t-145.5 70t-106.5 122.5t-40 172.5z" />
<glyph unicode="&#xb7;" horiz-adv-x="501" d="M119 520q0 69 37 108.5t104 39.5t105 -39.5t38 -108.5t-38 -108t-105 -39t-104 39t-37 108z" />
<glyph unicode="&#xb8;" horiz-adv-x="641" d="M141 -408l35 107q10 23 29 14l26 -8q31 -8 60 -8q69 0 69 59q0 29 -19.5 44.5t-53.5 15.5h-72q-16 0 -27 14q-8 11 -2 29l52 153q6 19 24 19h88q12 0 17.5 -7.5t1.5 -19.5l-37 -88h14q70 0 116 -49t46 -131q0 -91 -57 -145t-160 -54q-47 0 -103 17l-34 12q-22 7 -13 26z " />
<glyph unicode="&#xba;" horiz-adv-x="882" d="M72 1032q0 187 99.5 297.5t268.5 110.5q170 0 270.5 -110.5t100.5 -297.5q0 -188 -100.5 -298.5t-270.5 -110.5q-169 0 -268.5 110.5t-99.5 298.5zM115 317v113q0 23 22 23h608q23 0 23 -23v-113q0 -22 -23 -22h-608q-22 0 -22 22zM244 1032q0 -117 52 -183.5t144 -66.5 q95 0 147 66t52 184t-52 184t-147 66q-92 0 -144 -66.5t-52 -183.5z" />
<glyph unicode="&#xbb;" horiz-adv-x="1239" d="M155 116.5q-4 7.5 5 18.5l262 363l-262 362q-9 10 -5 18.5t19 8.5h197q14 0 26 -15l250 -342q8 -11 8 -28v-6q0 -18 -8 -29l-254 -344q-11 -14 -26 -14h-193q-15 0 -19 7.5zM599 116.5q-4 7.5 5 18.5l262 363l-262 362q-9 10 -5 18.5t19 8.5h197q15 0 27 -15l250 -342 q8 -11 8 -28v-6q0 -18 -8 -29l-254 -344q-11 -14 -27 -14h-193q-15 0 -19 7.5z" />
<glyph unicode="&#xbc;" horiz-adv-x="1667" d="M49 1303q-9 18 12 28l271 103q15 5 30 -4q13 -13 13 -27v-748q0 -22 -23 -22h-123q-22 0 -22 22v455q0 52 6 92q2 9 -1.5 11.5t-12.5 -1.5l-80 -30q-18 -9 -29 12zM218 8q-5 8 3 19l909 1390q12 15 29 15h135q13 0 18 -8t-3 -19l-910 -1391q-11 -14 -28 -14h-135 q-13 0 -18 8zM963 215v111q0 15 10 28q36 39 69 86l195 265q7 10 17.5 25.5t18 27t13.5 24.5q8 17 27 17h174q22 0 22 -23v-444h66q22 0 22 -23v-94q0 -22 -22 -22h-66v-168q0 -23 -22 -23h-123q-23 0 -23 23v168h-356q-22 0 -22 22zM1137 336q3 -4 14 -4h190v127 q0 64 11 131q2 12 -6 14t-15 -8l-141 -188q-25 -36 -49 -60q-7 -8 -4 -12z" />
<glyph unicode="&#xbd;" horiz-adv-x="1757" d="M49 1303q-9 18 12 28l271 103q18 6 30 -4q13 -13 13 -27v-748q0 -22 -23 -22h-123q-22 0 -22 22v455q0 52 6 92q2 9 -1.5 11.5t-12.5 -1.5l-80 -30q-18 -9 -29 12zM218 8q-5 8 3 19l909 1390q12 15 29 15h135q13 0 18 -8t-3 -19l-910 -1391q-11 -14 -28 -14h-135 q-13 0 -18 8zM1128 25v73q0 111 38 185.5t120 119.5l172 101q49 32 49 69q0 34 -27.5 55t-74.5 21q-62 0 -139 -24l-68 -23q-19 -6 -29 14l-36 111q-7 20 14 27l67 22q94 31 191 31q129 0 201.5 -62t72.5 -172q0 -129 -139 -204l-176 -103q-61 -37 -61 -110h342q22 0 22 -23 v-108q0 -23 -22 -23h-494q-23 0 -23 23z" />
<glyph unicode="&#xbe;" horiz-adv-x="1869" d="M63 707l37 106q10 20 29 14l66 -20q77 -25 137 -25q61 0 97 23t36 63q0 43 -33.5 68t-89.5 25h-57q-23 0 -23 22v111q0 22 23 22h55q46 0 71 22t25 60t-28 62t-78 24q-60 0 -119 -20l-57 -19q-20 -10 -27 15l-37 106q-6 19 14 29l58 20q74 25 168 25q130 0 204 -59.5 t74 -163.5q0 -108 -82 -158q-2 -1 -8.5 -3t-9.5 -4.5t-2 -7.5q0 -7 8 -10q121 -55 121 -182q0 -110 -80 -169.5t-223 -59.5q-79 0 -187 32l-67 23q-24 7 -15 29zM420.5 8q-4.5 8 3.5 19l909 1390q12 15 29 15h135q13 0 17.5 -8t-3.5 -19l-909 -1391q-11 -14 -29 -14h-135 q-13 0 -17.5 8zM1165 215v111q0 13 11 28q36 39 69 86l195 265q7 10 17.5 25.5t18 27t13.5 24.5q9 17 27 17h174q22 0 22 -23v-444h66q22 0 22 -23v-94q0 -22 -22 -22h-66v-168q0 -23 -22 -23h-123q-23 0 -23 23v168h-356q-23 0 -23 22zM1339.5 336q3.5 -4 14.5 -4h190v127 q0 70 10 131q2 12 -5.5 14t-14.5 -8l-141 -188q-23 -33 -50 -60q-7 -8 -3.5 -12z" />
<glyph unicode="&#xbf;" horiz-adv-x="1021" d="M68 -90q0 100 48.5 180.5t153.5 155.5l113 80q82 62 82 153v105q0 22 22 22h185q22 0 22 -22v-105q0 -106 -43 -184t-135 -143l-117 -80q-53 -37 -77.5 -74t-24.5 -88q0 -68 69.5 -112t176.5 -44q130 0 264 41l119 39q18 6 28 -14l58 -164q10 -20 -15 -27l-120 -41 q-174 -53 -334 -53q-228 0 -351.5 100t-123.5 275zM426 864q0 69 38 108.5t105 39.5t104.5 -39.5t37.5 -108.5t-37.5 -108t-104.5 -39t-105 39t-38 108z" />
<glyph unicode="&#xc0;" horiz-adv-x="1478" d="M78 27l352 899q108 291 158 485q3 21 24 21h252q22 0 25 -19q53 -198 160 -487l352 -899q10 -27 -19 -27h-196q-19 0 -25 18l-100 256h-643l-101 -256q-6 -18 -24 -18h-197q-28 0 -18 27zM411.5 1836.5q3.5 8.5 18.5 8.5h248q18 0 29 -14l145 -215q8 -10 3.5 -18.5 t-17.5 -8.5h-179q-15 0 -28 13l-213 215q-10 11 -6.5 19.5zM498 481h483l-109 269q-89 241 -116 378q-3 11 -10 15.5t-14 0t-9 -15.5q-26 -134 -119 -378z" />
<glyph unicode="&#xc1;" horiz-adv-x="1478" d="M78 27l352 899q108 291 158 485q3 21 24 21h252q22 0 25 -19q53 -198 160 -487l352 -899q10 -27 -19 -27h-196q-19 0 -25 18l-100 256h-643l-101 -256q-6 -18 -24 -18h-197q-28 0 -18 27zM498 481h483l-109 269q-89 241 -116 378q-3 11 -10 15.5t-14 0t-9 -15.5 q-26 -134 -119 -378zM611 1597.5q-5 8.5 3 18.5l146 215q11 14 28 14h248q15 0 19 -8.5t-6 -19.5l-213 -215q-13 -13 -29 -13h-178q-13 0 -18 8.5z" />
<glyph unicode="&#xc2;" horiz-adv-x="1478" d="M78 27l352 899q108 291 158 485q3 21 24 21h252q22 0 25 -19q53 -198 160 -487l352 -899q10 -27 -19 -27h-196q-19 0 -25 18l-100 256h-643l-101 -256q-6 -18 -24 -18h-197q-28 0 -18 27zM400 1597.5q-3 8.5 6 20.5l192 215q9 12 27 12h225q18 0 27 -12l194 -215 q9 -12 5.5 -20.5t-17.5 -8.5h-160q-19 0 -29 10l-131 113l-133 -113q-10 -10 -28 -10h-160q-15 0 -18 8.5zM498 481h483l-109 269q-89 241 -116 378q-3 11 -10 15.5t-14 0t-9 -15.5q-26 -134 -119 -378z" />
<glyph unicode="&#xc3;" horiz-adv-x="1478" d="M78 27l352 899q108 291 158 485q3 21 24 21h252q22 0 25 -19q53 -198 160 -487l352 -899q10 -27 -19 -27h-196q-19 0 -25 18l-100 256h-643l-101 -256q-6 -18 -24 -18h-197q-28 0 -18 27zM375 1634l49 90q52 105 180 105q54 0 125 -33l88 -35q47 -14 51 -14q37 0 54 35 l16 26q12 15 29 15h120q14 0 18.5 -7.5t-1.5 -19.5l-49 -92q-55 -102 -183 -102q-47 0 -120 30l-93 37q-47 14 -51 14q-35 0 -53 -32l-16 -27q-8 -16 -27 -16h-121q-29 0 -16 26zM498 481h483l-109 269q-89 241 -116 378q-3 11 -10 15.5t-14 0t-9 -15.5q-26 -134 -119 -378z " />
<glyph unicode="&#xc4;" horiz-adv-x="1478" d="M78 27l352 899q108 291 158 485q3 21 24 21h252q22 0 25 -19q53 -198 160 -487l352 -899q10 -27 -19 -27h-196q-19 0 -25 18l-100 256h-643l-101 -256q-6 -18 -24 -18h-197q-28 0 -18 27zM408 1716q0 62 35 94.5t102 32.5q65 0 100 -33t35 -94t-35 -93t-100 -32 q-137 0 -137 125zM498 481h483l-109 269q-89 241 -116 378q-3 11 -10 15.5t-14 0t-9 -15.5q-26 -134 -119 -378zM795 1716q0 62 35 94.5t102 32.5q65 0 100 -33t35 -94t-35 -93t-100 -32q-137 0 -137 125z" />
<glyph unicode="&#xc5;" horiz-adv-x="1478" d="M78 27l352 899q108 291 158 485q3 21 24 21h252q22 0 25 -19q53 -198 160 -487l352 -899q10 -27 -19 -27h-196q-19 0 -25 18l-100 256h-643l-101 -256q-6 -18 -24 -18h-197q-28 0 -18 27zM498 481h483l-109 269q-89 241 -116 378q-3 11 -10 15.5t-14 0t-9 -15.5 q-26 -134 -119 -378zM545 1712q0 78 51.5 122t140.5 44q92 0 143.5 -44t51.5 -122q0 -75 -51.5 -118.5t-143.5 -43.5q-89 0 -140.5 43.5t-51.5 118.5zM662 1712q0 -31 20 -49t55 -18q36 0 56 18t20 49q0 33 -20 51.5t-56 18.5q-35 0 -55 -19t-20 -51z" />
<glyph unicode="&#xc6;" horiz-adv-x="1908" d="M78 27l334 847q133 357 176 537q3 21 24 21h1176q12 0 17 -7.5t1 -17.5l-45 -164q-6 -18 -26 -18h-752q-26 0 -22 -31q5 -39 47 -152l79 -204h539q23 0 23 -23v-160q0 -22 -23 -22h-459l168 -426h451q22 0 22 -23v-161q0 -23 -22 -23h-600q-19 0 -25 18l-100 256h-643 l-101 -256q-6 -18 -24 -18h-197q-28 0 -18 27zM496 481h485l-123 310q-67 181 -102 335q-3 13 -9.5 18t-13.5 0t-10 -18q-37 -151 -105 -333z" />
<glyph unicode="&#xc7;" horiz-adv-x="1263" d="M104 717q0 340 168 537.5t461 197.5q91 0 157 -10t142 -37l90 -31q21 -7 15 -26l-54 -158q-7 -20 -26 -14l-92 30q-93 32 -232 35q-186 0 -289.5 -138t-103.5 -386q0 -250 103.5 -388.5t289.5 -138.5q127 0 234 37l90 31q18 6 28 -14l56 -154q9 -22 -15 -29l-90 -30 q-155 -54 -293 -54l-24 -61h14q70 0 116 -49t46 -131q0 -91 -57 -145t-160 -54q-47 0 -103 17l-34 12q-22 7 -13 26l35 107q10 23 29 14l26 -8q31 -8 60 -8q70 0 70 59q0 29 -20 44.5t-54 15.5h-72q-16 0 -27 14q-8 11 -2 29l43 127q-242 40 -377 232.5t-135 498.5z" />
<glyph unicode="&#xc8;" horiz-adv-x="1241" d="M158 23v1386q0 23 22 23h938q12 0 18 -7t3 -18l-45 -164q-6 -18 -27 -18h-678v-387h569q23 0 23 -23v-160q0 -22 -23 -22h-569v-426h729q23 0 23 -23v-161q0 -23 -23 -23h-938q-22 0 -22 23zM327.5 1836.5q3.5 8.5 18.5 8.5h248q18 0 29 -14l145 -215q8 -10 3.5 -18.5 t-17.5 -8.5h-179q-15 0 -28 13l-213 215q-10 11 -6.5 19.5z" />
<glyph unicode="&#xc9;" horiz-adv-x="1241" d="M158 23v1386q0 23 22 23h938q12 0 18 -7t3 -18l-45 -164q-6 -18 -27 -18h-678v-387h569q23 0 23 -23v-160q0 -22 -23 -22h-569v-426h729q23 0 23 -23v-161q0 -23 -23 -23h-938q-22 0 -22 23zM525 1597.5q-5 8.5 3 18.5l146 215q11 14 28 14h248q15 0 19 -8.5t-6 -19.5 l-213 -215q-13 -13 -29 -13h-178q-13 0 -18 8.5z" />
<glyph unicode="&#xca;" horiz-adv-x="1241" d="M158 23v1386q0 23 22 23h938q12 0 18 -7t3 -18l-45 -164q-6 -18 -27 -18h-678v-387h569q23 0 23 -23v-160q0 -22 -23 -22h-569v-426h729q23 0 23 -23v-161q0 -23 -23 -23h-938q-22 0 -22 23zM316 1597.5q-3 8.5 6 20.5l192 215q9 12 27 12h225q18 0 27 -12l194 -215 q9 -12 5.5 -20.5t-17.5 -8.5h-160q-19 0 -29 10l-131 113l-133 -113q-10 -10 -28 -10h-160q-15 0 -18 8.5z" />
<glyph unicode="&#xcb;" horiz-adv-x="1241" d="M158 23v1386q0 23 22 23h938q12 0 18 -7t3 -18l-45 -164q-6 -18 -27 -18h-678v-387h569q23 0 23 -23v-160q0 -22 -23 -22h-569v-426h729q23 0 23 -23v-161q0 -23 -23 -23h-938q-22 0 -22 23zM324 1716q0 62 35 94.5t102 32.5q65 0 100 -33t35 -94t-35 -93t-100 -32 q-137 0 -137 125zM711 1716q0 62 35 94.5t102 32.5q65 0 100 -33t35 -94t-35 -93t-100 -32q-137 0 -137 125z" />
<glyph unicode="&#xcc;" horiz-adv-x="546" d="M-52 1836.5q4 8.5 19 8.5h248q18 0 29 -14l145 -215q8 -10 3.5 -18.5t-17.5 -8.5h-178q-16 0 -29 13l-213 215q-11 11 -7 19.5zM158 23v1386q0 23 22 23h187q22 0 22 -23v-1386q0 -23 -22 -23h-187q-22 0 -22 23z" />
<glyph unicode="&#xcd;" horiz-adv-x="546" d="M146.5 1597.5q-4.5 8.5 3.5 18.5l145 215q11 14 29 14h247q15 0 19 -8.5t-6 -19.5l-213 -215q-13 -13 -29 -13h-178q-13 0 -17.5 8.5zM158 23v1386q0 23 22 23h187q22 0 22 -23v-1386q0 -23 -22 -23h-187q-22 0 -22 23z" />
<glyph unicode="&#xce;" horiz-adv-x="546" d="M-63 1597.5q-3 8.5 6 20.5l192 215q9 12 27 12h225q18 0 27 -12l194 -215q9 -12 5.5 -20.5t-17.5 -8.5h-160q-18 0 -28 10l-132 113l-133 -113q-10 -10 -28 -10h-160q-15 0 -18 8.5zM158 23v1386q0 23 22 23h187q22 0 22 -23v-1386q0 -23 -22 -23h-187q-22 0 -22 23z" />
<glyph unicode="&#xcf;" horiz-adv-x="546" d="M-55 1716q0 62 35 94.5t102 32.5q65 0 100 -33t35 -94t-35 -93t-100 -32q-137 0 -137 125zM158 23v1386q0 23 22 23h187q22 0 22 -23v-1386q0 -23 -22 -23h-187q-22 0 -22 23zM332 1716q0 62 35 94.5t102 32.5q65 0 100 -33t35 -94t-35 -93t-100 -32q-137 0 -137 125z " />
<glyph unicode="&#xd0;" horiz-adv-x="1511" d="M66 645v160q0 22 22 22h193v582q0 23 22 23h479q291 0 458 -193t167 -524q0 -327 -168.5 -521t-456.5 -194h-479q-22 0 -22 23v600h-193q-22 0 -22 22zM512 207h270q182 0 284.5 133.5t102.5 374.5q0 242 -102.5 376t-284.5 134h-270v-398h248q22 0 22 -22v-160 q0 -22 -22 -22h-248v-416z" />
<glyph unicode="&#xd1;" horiz-adv-x="1470" d="M158 23v1386q0 23 22 23h246q17 0 27 -17q49 -110 108 -211l438 -723q45 -82 72 -137q7 -20 18.5 -15.5t8.5 23.5q-17 109 -17 281v776q0 23 23 23h186q23 0 23 -23v-1386q0 -23 -23 -23h-246q-16 0 -26 16q-41 98 -107 211l-438 723q-43 76 -72 137q-9 17 -20 13.5 t-8 -21.5q18 -138 18 -284v-772q0 -23 -22 -23h-189q-22 0 -22 23zM373 1634l49 90q52 105 180 105q54 0 125 -33l88 -35q47 -14 51 -14q37 0 54 35l16 26q12 15 29 15h120q14 0 18.5 -7.5t-1.5 -19.5l-49 -92q-55 -102 -183 -102q-47 0 -120 30l-93 37q-47 14 -51 14 q-35 0 -53 -32l-16 -27q-8 -16 -27 -16h-121q-29 0 -16 26z" />
<glyph unicode="&#xd2;" horiz-adv-x="1452" d="M104 717q0 340 166.5 537.5t456.5 197.5q289 0 456 -197.5t167 -537.5q0 -342 -167.5 -541t-455.5 -199q-290 0 -456.5 199t-166.5 541zM340 717q0 -247 102.5 -387t284.5 -140q181 0 283 140t102 387t-101.5 385.5t-283.5 138.5q-183 0 -285 -138t-102 -386z M401.5 1836.5q3.5 8.5 18.5 8.5h248q17 0 28 -14l146 -215q8 -10 3 -18.5t-18 -8.5h-178q-15 0 -28 13l-213 215q-10 11 -6.5 19.5z" />
<glyph unicode="&#xd3;" horiz-adv-x="1452" d="M104 717q0 340 166.5 537.5t456.5 197.5q289 0 456 -197.5t167 -537.5q0 -342 -167.5 -541t-455.5 -199q-290 0 -456.5 199t-166.5 541zM340 717q0 -247 102.5 -387t284.5 -140q181 0 283 140t102 387t-101.5 385.5t-283.5 138.5q-183 0 -285 -138t-102 -386z M598.5 1597.5q-4.5 8.5 3.5 18.5l146 215q11 14 28 14h248q15 0 18.5 -8.5t-6.5 -19.5l-213 -215q-13 -13 -28 -13h-179q-13 0 -17.5 8.5z" />
<glyph unicode="&#xd4;" horiz-adv-x="1452" d="M104 717q0 340 166.5 537.5t456.5 197.5q289 0 456 -197.5t167 -537.5q0 -342 -167.5 -541t-455.5 -199q-290 0 -456.5 199t-166.5 541zM340 717q0 -247 102.5 -387t284.5 -140q181 0 283 140t102 387t-101.5 385.5t-283.5 138.5q-183 0 -285 -138t-102 -386z M387.5 1597.5q-3.5 8.5 5.5 20.5l193 215q9 12 26 12h226q17 0 26 -12l195 -215q9 -12 5.5 -20.5t-17.5 -8.5h-160q-19 0 -29 10l-131 113l-133 -113q-10 -10 -29 -10h-159q-15 0 -18.5 8.5z" />
<glyph unicode="&#xd5;" horiz-adv-x="1452" d="M104 717q0 340 166.5 537.5t456.5 197.5q289 0 456 -197.5t167 -537.5q0 -342 -167.5 -541t-455.5 -199q-290 0 -456.5 199t-166.5 541zM340 717q0 -247 102.5 -387t284.5 -140q181 0 283 140t102 387t-101.5 385.5t-283.5 138.5q-183 0 -285 -138t-102 -386zM360.5 1615 q-4.5 7 1.5 19l50 90q52 105 180 105q54 0 125 -33l88 -35q47 -14 51 -14q36 0 53 35l17 26q12 15 28 15h121q14 0 18.5 -7.5t-1.5 -19.5l-50 -92q-55 -102 -182 -102q-48 0 -121 30l-92 37q-47 14 -51 14q-35 0 -53 -32l-17 -27q-8 -16 -26 -16h-121q-14 0 -18.5 7z" />
<glyph unicode="&#xd6;" horiz-adv-x="1452" d="M104 717q0 340 166.5 537.5t456.5 197.5q289 0 456 -197.5t167 -537.5q0 -342 -167.5 -541t-455.5 -199q-290 0 -456.5 199t-166.5 541zM340 717q0 -247 102.5 -387t284.5 -140q181 0 283 140t102 387t-101.5 385.5t-283.5 138.5q-183 0 -285 -138t-102 -386zM395 1716 q0 62 35 94.5t102 32.5q65 0 100.5 -33t35.5 -94t-35.5 -93t-100.5 -32q-137 0 -137 125zM782 1716q0 62 35.5 94.5t102.5 32.5q65 0 100 -33t35 -94t-35 -93t-100 -32q-138 0 -138 125z" />
<glyph unicode="&#xd7;" horiz-adv-x="1284" d="M168 166q-16 16 0 33l326 325l-326 326q-16 16 0 33l115 116q16 16 32 0l328 -325l324 323q16 16 32 0l117 -116q16 -17 0 -33l-325 -324l325 -325q16 -17 0 -33l-117 -117q-16 -16 -32 0l-324 326l-326 -326q-16 -16 -32 0z" />
<glyph unicode="&#xd8;" horiz-adv-x="1472" d="M115 717q0 341 166 538t456 197q223 0 375 -121l66 86q12 15 26 15h121q13 0 17.5 -8t-3.5 -19l-129 -172q150 -198 150 -516q0 -342 -167.5 -541t-455.5 -199q-226 0 -377 123l-65 -86q-11 -14 -27 -14h-118q-13 0 -18 8t3 19l129 172q-149 197 -149 518zM350 717 q0 -186 62 -320l565 754q-93 90 -240 90q-183 0 -285 -138t-102 -386zM496 281q97 -91 241 -91q181 0 283 140t102 387q0 192 -61 317z" />
<glyph unicode="&#xd9;" horiz-adv-x="1376" d="M137 575v834q0 23 23 23h186q23 0 23 -23v-834q0 -184 83.5 -284.5t235.5 -100.5q151 0 234.5 100.5t83.5 284.5v834q0 23 22 23h189q22 0 22 -23v-834q0 -284 -145 -441t-406 -157t-406 157t-145 441zM362 1836.5q4 8.5 19 8.5h248q17 0 28 -14l146 -215q8 -10 3 -18.5 t-18 -8.5h-178q-15 0 -28 13l-213 215q-11 11 -7 19.5z" />
<glyph unicode="&#xda;" horiz-adv-x="1376" d="M137 575v834q0 23 23 23h186q23 0 23 -23v-834q0 -184 83.5 -284.5t235.5 -100.5q151 0 234.5 100.5t83.5 284.5v834q0 23 22 23h189q22 0 22 -23v-834q0 -284 -145 -441t-406 -157t-406 157t-145 441zM560 1597.5q-5 8.5 3 18.5l146 215q11 14 28 14h248q15 0 19 -8.5 t-7 -19.5l-213 -215q-13 -13 -28 -13h-178q-13 0 -18 8.5z" />
<glyph unicode="&#xdb;" horiz-adv-x="1376" d="M137 575v834q0 23 23 23h186q23 0 23 -23v-834q0 -184 83.5 -284.5t235.5 -100.5q151 0 234.5 100.5t83.5 284.5v834q0 23 22 23h189q22 0 22 -23v-834q0 -284 -145 -441t-406 -157t-406 157t-145 441zM350.5 1597.5q-3.5 8.5 5.5 20.5l193 215q9 12 26 12h226 q17 0 26 -12l195 -215q9 -12 5.5 -20.5t-17.5 -8.5h-160q-19 0 -29 10l-131 113l-133 -113q-10 -10 -29 -10h-159q-15 0 -18.5 8.5z" />
<glyph unicode="&#xdc;" horiz-adv-x="1376" d="M137 575v834q0 23 23 23h186q23 0 23 -23v-834q0 -184 83.5 -284.5t235.5 -100.5q151 0 234.5 100.5t83.5 284.5v834q0 23 22 23h189q22 0 22 -23v-834q0 -284 -145 -441t-406 -157t-406 157t-145 441zM358 1716q0 62 35.5 94.5t102.5 32.5q65 0 100 -33t35 -94t-35 -93 t-100 -32q-138 0 -138 125zM745 1716q0 62 35.5 94.5t102.5 32.5q65 0 100 -33t35 -94t-35 -93t-100 -32q-138 0 -138 125z" />
<glyph unicode="&#xdd;" horiz-adv-x="1380" d="M71.5 1424q4.5 8 16.5 8h207q18 0 27 -15l221 -366q70 -118 131 -277q6 -15 17.5 -15t15.5 15q50 130 131 277l223 366q9 15 26 15h207q12 0 17 -8t-2 -19l-303 -512q-66 -119 -92 -170t-57 -128.5t-40.5 -143t-9.5 -152.5v-276q0 -23 -23 -23h-188q-23 0 -23 23v276 q0 88 -9.5 154t-38.5 140.5t-57.5 130t-92.5 169.5l-301 512q-7 11 -2.5 19zM564 1597.5q-5 8.5 3 18.5l146 215q11 14 28 14h248q15 0 18.5 -8.5t-6.5 -19.5l-213 -215q-13 -13 -28 -13h-178q-13 0 -18 8.5z" />
<glyph unicode="&#xde;" horiz-adv-x="1306" d="M158 23v1386q0 23 22 23h187q22 0 22 -23v-219h297q239 0 374.5 -123.5t135.5 -341.5q0 -219 -135 -342t-375 -123h-297v-237q0 -23 -22 -23h-187q-22 0 -22 23zM389 467h297q129 0 202 68.5t73 189.5t-73 189.5t-202 68.5h-297v-516z" />
<glyph unicode="&#xdf;" horiz-adv-x="1253" d="M137 23v970q0 235 125 366.5t346 131.5q196 0 303 -88.5t107 -247.5q0 -60 -22.5 -111t-71.5 -108l-101 -105q-43 -43 -43 -83q0 -53 80 -101l119 -69q106 -67 153.5 -133t47.5 -158q0 -146 -96 -228t-275 -82q-128 0 -242 41l-73 25q-22 7 -15 27l53 155q7 22 27 15 l62 -21q92 -35 188 -35q70 0 107.5 28t37.5 75q0 31 -19.5 54.5t-62.5 51.5l-139 82q-91 54 -134.5 116t-43.5 140q0 111 98 221l88 95q52 55 52 108q0 61 -48.5 95t-136.5 34q-114 0 -178.5 -77t-64.5 -214v-970q0 -23 -23 -23h-182q-23 0 -23 23z" />
<glyph unicode="&#xe0;" horiz-adv-x="1054" d="M78 287q0 147 97 231t276 84h256v12q0 94 -59 143.5t-173 49.5q-87 0 -160 -21l-73 -22q-23 -6 -29 16l-45 152q-6 23 16 29l78 22q109 31 223 31q208 0 327.5 -103t119.5 -288v-600q0 -23 -23 -23h-102q-21 0 -27 18l-16 64q-6 15 -12.5 19.5t-15.5 1t-23 -16.5 q-98 -109 -281 -109q-169 0 -261.5 82t-92.5 228zM249 1460q4 8 19 8h207q19 0 27 -16l139 -264q13 -27 -16 -27h-152q-15 0 -27 15l-192 266q-9 10 -5 18zM303 307q0 -60 40.5 -94.5t113.5 -34.5q122 0 186 59t64 173v14h-256q-73 0 -110.5 -31.5t-37.5 -85.5z" />
<glyph unicode="&#xe1;" horiz-adv-x="1054" d="M78 287q0 147 97 231t276 84h256v12q0 94 -59 143.5t-173 49.5q-87 0 -160 -21l-73 -22q-23 -6 -29 16l-45 152q-6 23 16 29l78 22q109 31 223 31q208 0 327.5 -103t119.5 -288v-600q0 -23 -23 -23h-102q-21 0 -27 18l-16 64q-6 15 -12.5 19.5t-15.5 1t-23 -16.5 q-98 -109 -281 -109q-169 0 -261.5 82t-92.5 228zM303 307q0 -60 40.5 -94.5t113.5 -34.5q122 0 186 59t64 173v14h-256q-73 0 -110.5 -31.5t-37.5 -85.5zM412.5 1168.5q-4.5 7.5 1.5 19.5l139 264q8 16 27 16h206q15 0 19.5 -8t-4.5 -18l-193 -266q-12 -15 -26 -15h-152 q-13 0 -17.5 7.5z" />
<glyph unicode="&#xe2;" horiz-adv-x="1054" d="M78 287q0 147 97 231t276 84h256v12q0 94 -59 143.5t-173 49.5q-87 0 -160 -21l-73 -22q-23 -6 -29 16l-45 152q-6 23 16 29l78 22q109 31 223 31q208 0 327.5 -103t119.5 -288v-600q0 -23 -23 -23h-102q-21 0 -27 18l-16 64q-6 15 -12.5 19.5t-15.5 1t-23 -16.5 q-98 -109 -281 -109q-169 0 -261.5 82t-92.5 228zM220 1169.5q-4 8.5 5 18.5l191 266q11 14 26 14h168q16 0 27 -14l190 -266q9 -10 5.5 -18.5t-17.5 -8.5h-137q-17 0 -27 13l-125 141l-125 -141q-10 -13 -26 -13h-137q-14 0 -18 8.5zM303 307q0 -60 40.5 -94.5t113.5 -34.5 q122 0 186 59t64 173v14h-256q-73 0 -110.5 -31.5t-37.5 -85.5z" />
<glyph unicode="&#xe3;" horiz-adv-x="1054" d="M78 287q0 147 97 231t276 84h256v12q0 94 -59 143.5t-173 49.5q-87 0 -160 -21l-73 -22q-23 -6 -29 16l-45 152q-6 23 16 29l78 22q109 31 223 31q208 0 327.5 -103t119.5 -288v-600q0 -23 -23 -23h-102q-21 0 -27 18l-16 64q-6 15 -12.5 19.5t-15.5 1t-23 -16.5 q-98 -109 -281 -109q-169 0 -261.5 82t-92.5 228zM209 1274l47 94q28 57 66.5 83t95.5 26t108 -33l76 -47q24 -15 41 -15q23 0 45 37l21 33q8 16 26 16h103q29 0 16 -26l-47 -94q-53 -107 -162 -107q-57 0 -113 37l-71 39q-24 18 -43 18q-23 0 -43 -35l-21 -36 q-8 -17 -26 -17h-103q-26 0 -16 27zM303 307q0 -60 40.5 -94.5t113.5 -34.5q122 0 186 59t64 173v14h-256q-73 0 -110.5 -31.5t-37.5 -85.5z" />
<glyph unicode="&#xe4;" horiz-adv-x="1054" d="M78 287q0 147 97 231t276 84h256v12q0 94 -59 143.5t-173 49.5q-87 0 -160 -21l-73 -22q-23 -6 -29 16l-45 152q-6 23 16 29l78 22q109 31 223 31q208 0 327.5 -103t119.5 -288v-600q0 -23 -23 -23h-102q-21 0 -27 18l-16 64q-6 15 -12.5 19.5t-15.5 1t-23 -16.5 q-98 -109 -281 -109q-169 0 -261.5 82t-92.5 228zM219 1358q0 60 33.5 94.5t91.5 34.5q60 0 93.5 -34.5t33.5 -94.5q0 -64 -33 -97.5t-94 -33.5q-59 0 -92 33.5t-33 97.5zM303 307q0 -60 40.5 -94.5t113.5 -34.5q122 0 186 59t64 173v14h-256q-73 0 -110.5 -31.5 t-37.5 -85.5zM582 1358q0 60 33.5 94.5t91.5 34.5q60 0 93.5 -34.5t33.5 -94.5q0 -64 -33 -97.5t-94 -33.5q-59 0 -92 33.5t-33 97.5z" />
<glyph unicode="&#xe5;" horiz-adv-x="1054" d="M78 287q0 147 97 231t276 84h256v12q0 94 -59 143.5t-173 49.5q-87 0 -160 -21l-73 -22q-23 -6 -29 16l-45 152q-6 23 16 29l78 22q109 31 223 31q208 0 327.5 -103t119.5 -288v-600q0 -23 -23 -23h-102q-21 0 -27 18l-16 64q-6 15 -12.5 19.5t-15.5 1t-23 -16.5 q-98 -109 -281 -109q-169 0 -261.5 82t-92.5 228zM303 307q0 -60 40.5 -94.5t113.5 -34.5q122 0 186 59t64 173v14h-256q-73 0 -110.5 -31.5t-37.5 -85.5zM338 1315q0 80 49.5 126t138.5 46t139 -46t50 -126t-50 -125t-139 -45t-138.5 45t-49.5 125zM444 1315 q0 -34 21.5 -53t60.5 -19t60.5 19t21.5 53t-21 52.5t-61 18.5t-61 -18.5t-21 -52.5z" />
<glyph unicode="&#xe6;" horiz-adv-x="1660" d="M78 287q0 148 98.5 230.5t276.5 82.5h254v29q0 80 -59.5 130t-164.5 50q-89 0 -166 -23l-75 -22q-23 -6 -29 16l-45 150q-6 22 16 28l99 29q96 27 202 27q222 0 338 -154q21 -21 39 0q54 74 137 114t181 40q192 0 292.5 -86.5t100.5 -235.5q0 -124 -78 -191.5t-240 -92.5 l-301 -50q21 -79 80 -126.5t146 -47.5q88 0 174 21l88 22q22 6 28 -16l41 -154q6 -22 -16 -28l-92 -23q-113 -29 -223 -29q-222 0 -340 175q-18 27 -37 2q-117 -177 -359 -177q-172 0 -269 83t-97 227zM303 307q0 -60 41.5 -94.5t114.5 -34.5q125 0 186.5 59t61.5 189h-263 q-66 0 -103.5 -31t-37.5 -88zM936 537l289 45q127 20 127 106q0 50 -43.5 85.5t-128.5 35.5q-106 0 -170 -67.5t-74 -204.5z" />
<glyph unicode="&#xe7;" horiz-adv-x="970" d="M88 498q0 242 127 379t365 137q88 0 176 -25l88 -24q22 -6 16 -29l-47 -154q-7 -21 -27 -14l-69 18q-73 23 -137 23q-134 0 -200.5 -80.5t-66.5 -228.5q0 -151 66.5 -233.5t195.5 -82.5q68 0 152 23l68 20q21 6 28 -14l47 -154q6 -22 -16 -28l-90 -27q-103 -27 -191 -27 l-24 -61h14q70 0 116 -49t46 -131q0 -91 -57 -145t-160 -54q-46 0 -102 17l-35 12q-22 7 -13 26l35 107q10 23 29 14l27 -8q31 -8 59 -8q70 0 70 59q0 29 -20 44.5t-54 15.5h-72q-15 0 -26 14q-9 12 -3 29l43 131q-172 35 -265 168t-93 340z" />
<glyph unicode="&#xe8;" horiz-adv-x="1046" d="M88 496q0 241 126 379.5t349 138.5q184 0 289.5 -87t105.5 -239q0 -119 -73.5 -187t-227.5 -91l-321 -50q18 -83 78 -129.5t155 -46.5q97 0 162 21l90 22q23 6 29 -16l41 -154q6 -21 -17 -28l-94 -25q-111 -27 -209 -27q-229 0 -356 139t-127 380zM259.5 1460 q4.5 8 19.5 8h206q19 0 27 -16l139 -264q13 -27 -16 -27h-152q-14 0 -26 15l-193 266q-9 10 -4.5 18zM315 537l308 49q110 18 110 98q0 61 -45 93t-129 32q-105 0 -168.5 -67.5t-75.5 -204.5z" />
<glyph unicode="&#xe9;" horiz-adv-x="1046" d="M88 496q0 241 126 379.5t349 138.5q184 0 289.5 -87t105.5 -239q0 -119 -73.5 -187t-227.5 -91l-321 -50q18 -83 78 -129.5t155 -46.5q97 0 162 21l90 22q23 6 29 -16l41 -154q6 -21 -17 -28l-94 -25q-111 -27 -209 -27q-229 0 -356 139t-127 380zM315 537l308 49 q110 18 110 98q0 61 -45 93t-129 32q-105 0 -168.5 -67.5t-75.5 -204.5zM422.5 1168.5q-4.5 7.5 1.5 19.5l139 264q8 16 27 16h207q15 0 19 -8t-5 -18l-193 -266q-12 -15 -26 -15h-152q-13 0 -17.5 7.5z" />
<glyph unicode="&#xea;" horiz-adv-x="1046" d="M88 496q0 241 126 379.5t349 138.5q184 0 289.5 -87t105.5 -239q0 -119 -73.5 -187t-227.5 -91l-321 -50q18 -83 78 -129.5t155 -46.5q97 0 162 21l90 22q23 6 29 -16l41 -154q6 -21 -17 -28l-94 -25q-111 -27 -209 -27q-229 0 -356 139t-127 380zM230.5 1169.5 q-3.5 8.5 5.5 18.5l190 266q11 14 27 14h168q15 0 26 -14l191 -266q9 -10 5 -18.5t-18 -8.5h-137q-16 0 -26 13l-125 141l-125 -141q-10 -13 -27 -13h-137q-14 0 -17.5 8.5zM315 537l308 49q110 18 110 98q0 61 -45 93t-129 32q-105 0 -168.5 -67.5t-75.5 -204.5z" />
<glyph unicode="&#xeb;" horiz-adv-x="1046" d="M88 496q0 241 126 379.5t349 138.5q184 0 289.5 -87t105.5 -239q0 -119 -73.5 -187t-227.5 -91l-321 -50q18 -83 78 -129.5t155 -46.5q97 0 162 21l90 22q23 6 29 -16l41 -154q6 -21 -17 -28l-94 -25q-111 -27 -209 -27q-229 0 -356 139t-127 380zM229 1358 q0 60 33.5 94.5t91.5 34.5q60 0 93.5 -34.5t33.5 -94.5q0 -64 -33 -97.5t-94 -33.5q-59 0 -92 33.5t-33 97.5zM315 537l308 49q110 18 110 98q0 61 -45 93t-129 32q-105 0 -168.5 -67.5t-75.5 -204.5zM592 1358q0 60 33.5 94.5t91.5 34.5q60 0 93.5 -34.5t33.5 -94.5 q0 -64 -33 -97.5t-94 -33.5q-59 0 -92 33.5t-33 97.5z" />
<glyph unicode="&#xec;" horiz-adv-x="573" d="M74 1442q-13 26 16 26h193q20 0 26 -18l84 -264q7 -25 -18 -25h-139q-18 0 -27 17zM86 813v158q0 22 23 22h305q22 0 22 -22v-948q0 -23 -22 -23h-183q-22 0 -22 23v768h-100q-23 0 -23 22z" />
<glyph unicode="&#xed;" horiz-adv-x="573" d="M86 813v158q0 22 23 22h305q22 0 22 -22v-948q0 -23 -22 -23h-183q-22 0 -22 23v768h-100q-23 0 -23 22zM195 1186l84 264q6 18 26 18h193q29 0 16 -26l-135 -264q-9 -17 -27 -17h-139q-25 0 -18 25z" />
<glyph unicode="&#xee;" horiz-adv-x="573" d="M25.5 1169.5q-4.5 8.5 1.5 18.5l149 264q8 16 27 16h178q19 0 27 -16l149 -264q8 -10 3.5 -18.5t-17.5 -8.5h-131q-15 0 -27 15l-92 129l-92 -129q-12 -15 -27 -15h-131q-13 0 -17.5 8.5zM86 813v158q0 22 23 22h305q22 0 22 -22v-948q0 -23 -22 -23h-183q-22 0 -22 23 v768h-100q-23 0 -23 22z" />
<glyph unicode="&#xef;" horiz-adv-x="573" d="M-4 1364q0 60 33.5 94.5t91.5 34.5q60 0 93.5 -34.5t33.5 -94.5q0 -64 -33 -97.5t-94 -33.5q-59 0 -92 33.5t-33 97.5zM86 813v158q0 22 23 22h305q22 0 22 -22v-948q0 -23 -22 -23h-183q-22 0 -22 23v768h-100q-23 0 -23 22zM332 1364q0 60 33.5 94.5t91.5 34.5 q60 0 93.5 -34.5t33.5 -94.5q0 -64 -33 -97.5t-94 -33.5q-59 0 -92 33.5t-33 97.5z" />
<glyph unicode="&#xf0;" horiz-adv-x="1132" d="M88 471q0 226 118 356.5t316 130.5q146 0 230 -67q21 -17 29 -8t-3 28q-69 119 -192 238l-191 -86q-22 -9 -30 10l-25 49q-10 21 10 31l156 72l-4 4l-228 211q-10 10 -6 19t19 9h250q15 0 28 -10l121 -110l27 -27l190 88q23 10 31 -10l24 -53q10 -21 -10 -31l-160 -72 q124 -145 185 -317.5t61 -388.5q0 -269 -122 -413t-357 -144q-216 0 -341.5 132.5t-125.5 358.5zM313 469q0 -134 65.5 -209.5t182.5 -75.5t182.5 75.5t65.5 209.5q0 135 -65.5 210t-182.5 75t-182.5 -75t-65.5 -210z" />
<glyph unicode="&#xf1;" d="M137 23v948q0 22 23 22h102q22 0 25 -20l18 -82q10 -18 19.5 -18t27.5 16q111 125 283 125q175 0 275 -103t100 -284v-604q0 -23 -23 -23h-182q-23 0 -23 23v579q0 97 -47.5 152t-130.5 55q-114 0 -176.5 -80t-62.5 -229v-477q0 -23 -23 -23h-182q-23 0 -23 23zM250 1274 l47 94q28 57 66.5 83t95.5 26t108 -33l76 -47q24 -15 41 -15q23 0 45 37l21 33q8 16 26 16h103q29 0 16 -26l-47 -94q-28 -56 -66.5 -81.5t-95.5 -25.5t-113 37l-71 39q-24 18 -43 18q-23 0 -43 -35l-21 -36q-9 -17 -26 -17h-103q-26 0 -16 27z" />
<glyph unicode="&#xf2;" horiz-adv-x="1120" d="M88 498q0 237 127 376.5t346 139.5q218 0 344.5 -139.5t126.5 -376.5q0 -240 -126.5 -380.5t-344.5 -140.5q-219 0 -346 140.5t-127 380.5zM284 1460q4 8 19 8h207q19 0 27 -16l139 -264q6 -12 1.5 -19.5t-18.5 -7.5h-151q-15 0 -27 15l-192 266q-9 10 -5 18zM313 498 q0 -148 65.5 -231t182.5 -83q114 0 180 83.5t66 230.5q0 146 -66 228.5t-180 82.5q-117 0 -182.5 -82.5t-65.5 -228.5z" />
<glyph unicode="&#xf3;" horiz-adv-x="1120" d="M88 498q0 237 127 376.5t346 139.5q218 0 344.5 -139.5t126.5 -376.5q0 -240 -126.5 -380.5t-344.5 -140.5q-219 0 -346 140.5t-127 380.5zM313 498q0 -148 65.5 -231t182.5 -83q114 0 180 83.5t66 230.5q0 146 -66 228.5t-180 82.5q-117 0 -182.5 -82.5t-65.5 -228.5z M449 1188l139 264q8 16 26 16h207q15 0 19.5 -8t-4.5 -18l-193 -266q-12 -15 -27 -15h-151q-29 0 -16 27z" />
<glyph unicode="&#xf4;" horiz-adv-x="1120" d="M88 498q0 237 127 376.5t346 139.5q218 0 344.5 -139.5t126.5 -376.5q0 -240 -126.5 -380.5t-344.5 -140.5q-219 0 -346 140.5t-127 380.5zM252.5 1169.5q-3.5 8.5 5.5 18.5l191 266q11 14 26 14h168q16 0 27 -14l190 -266q9 -10 5.5 -18.5t-17.5 -8.5h-137q-17 0 -27 13 l-125 141l-125 -141q-10 -13 -26 -13h-138q-14 0 -17.5 8.5zM313 498q0 -148 65.5 -231t182.5 -83q114 0 180 83.5t66 230.5q0 146 -66 228.5t-180 82.5q-117 0 -182.5 -82.5t-65.5 -228.5z" />
<glyph unicode="&#xf5;" horiz-adv-x="1120" d="M88 498q0 237 127 376.5t346 139.5q218 0 344.5 -139.5t126.5 -376.5q0 -240 -126.5 -380.5t-344.5 -140.5q-219 0 -346 140.5t-127 380.5zM244 1274l47 94q28 57 66.5 83t95.5 26t108 -33l76 -47q24 -15 41 -15q23 0 45 37l20 33q8 16 27 16h102q14 0 18.5 -7t-1.5 -19 l-47 -94q-28 -56 -66.5 -81.5t-95.5 -25.5t-113 37l-71 39q-24 18 -43 18q-23 0 -43 -35l-21 -36q-9 -17 -27 -17h-102q-26 0 -16 27zM313 498q0 -148 65.5 -231t182.5 -83q114 0 180 83.5t66 230.5q0 146 -66 228.5t-180 82.5q-117 0 -182.5 -82.5t-65.5 -228.5z" />
<glyph unicode="&#xf6;" horiz-adv-x="1120" d="M88 498q0 237 127 376.5t346 139.5q218 0 344.5 -139.5t126.5 -376.5q0 -240 -126.5 -380.5t-344.5 -140.5q-219 0 -346 140.5t-127 380.5zM254 1358q0 60 33.5 94.5t91.5 34.5q60 0 93.5 -34.5t33.5 -94.5q0 -64 -33 -97.5t-94 -33.5q-59 0 -92 33.5t-33 97.5zM313 498 q0 -148 65.5 -231t182.5 -83q114 0 180 83.5t66 230.5q0 146 -66 228.5t-180 82.5q-117 0 -182.5 -82.5t-65.5 -228.5zM616 1358q0 60 33.5 94.5t91.5 34.5q60 0 93.5 -34.5t33.5 -94.5q0 -64 -33 -97.5t-94 -33.5q-59 0 -92 33.5t-33 97.5z" />
<glyph unicode="&#xf8;" horiz-adv-x="1120" d="M88 498q0 237 127 376.5t346 139.5q161 0 277 -80l39 47q9 12 26 12h88q14 0 18 -7.5t-5 -18.5l-86 -107q114 -139 114 -362q0 -240 -126.5 -380.5t-344.5 -140.5q-166 0 -282 84l-39 -49q-9 -12 -27 -12h-90q-14 0 -17.5 8t5.5 19l88 110q-111 136 -111 361zM301 498 q0 -109 39 -185l365 455q-59 41 -144 41q-122 0 -191 -82.5t-69 -228.5zM412 227q61 -43 149 -43q120 0 189 83.5t69 230.5q0 112 -41 186z" />
<glyph unicode="&#xf9;" d="M127 367v604q0 22 23 22h182q22 0 22 -22v-580q0 -97 47.5 -152t130.5 -55q114 0 177 80.5t63 229.5v477q0 22 23 22h182q22 0 22 -22v-948q0 -23 -22 -23h-103q-21 0 -24 20l-19 82q-10 18 -19.5 18t-27.5 -16q-110 -124 -282 -124q-175 0 -275 103t-100 284zM286 1460 q4 8 19 8h207q19 0 27 -16l139 -264q6 -12 1.5 -19.5t-17.5 -7.5h-152q-15 0 -27 15l-192 266q-9 10 -5 18z" />
<glyph unicode="&#xfa;" d="M127 367v604q0 22 23 22h182q22 0 22 -22v-580q0 -97 47.5 -152t130.5 -55q114 0 177 80.5t63 229.5v477q0 22 23 22h182q22 0 22 -22v-948q0 -23 -22 -23h-103q-21 0 -24 20l-19 82q-10 18 -19.5 18t-27.5 -16q-110 -124 -282 -124q-175 0 -275 103t-100 284zM451 1188 l139 264q8 16 26 16h207q15 0 19.5 -8t-4.5 -18l-193 -266q-12 -15 -27 -15h-151q-29 0 -16 27z" />
<glyph unicode="&#xfb;" d="M127 367v604q0 22 23 22h182q22 0 22 -22v-580q0 -97 47.5 -152t130.5 -55q114 0 177 80.5t63 229.5v477q0 22 23 22h182q22 0 22 -22v-948q0 -23 -22 -23h-103q-21 0 -24 20l-19 82q-10 18 -19.5 18t-27.5 -16q-110 -124 -282 -124q-175 0 -275 103t-100 284z M256.5 1169.5q-3.5 8.5 5.5 18.5l191 266q11 14 26 14h168q16 0 27 -14l190 -266q9 -10 5.5 -18.5t-17.5 -8.5h-137q-17 0 -27 13l-125 141l-125 -141q-10 -13 -26 -13h-138q-14 0 -17.5 8.5z" />
<glyph unicode="&#xfc;" d="M127 367v604q0 22 23 22h182q22 0 22 -22v-580q0 -97 47.5 -152t130.5 -55q114 0 177 80.5t63 229.5v477q0 22 23 22h182q22 0 22 -22v-948q0 -23 -22 -23h-103q-21 0 -24 20l-19 82q-10 18 -19.5 18t-27.5 -16q-110 -124 -282 -124q-175 0 -275 103t-100 284zM256 1358 q0 60 33.5 94.5t91.5 34.5q60 0 93.5 -34.5t33.5 -94.5q0 -64 -33 -97.5t-94 -33.5q-59 0 -92 33.5t-33 97.5zM618 1358q0 60 33.5 94.5t91.5 34.5q60 0 93.5 -34.5t33.5 -94.5q0 -64 -33 -97.5t-94 -33.5q-59 0 -92 33.5t-33 97.5z" />
<glyph unicode="&#xfd;" horiz-adv-x="1132" d="M68 967q-4 12 1 19t17 7h190q17 0 27 -16l162 -387q64 -168 84 -299q3 -15 16 -15t17 17q26 141 88 297l159 387q10 16 27 16h191q28 0 18 -26l-563 -1389q-6 -18 -25 -18h-188q-12 0 -17.5 7t-1.5 19l109 258q27 72 30 142.5t-13.5 144t-55.5 174.5zM442.5 1168.5 q-4.5 7.5 1.5 19.5l140 264q8 16 26 16h207q15 0 19 -8t-5 -18l-192 -266q-12 -15 -27 -15h-151q-14 0 -18.5 7.5z" />
<glyph unicode="&#xfe;" horiz-adv-x="1153" d="M137 -420v1866q0 22 23 22h182q23 0 23 -22v-299q0 -134 -33 -234q-6 -16 2.5 -23.5t25.5 5.5q106 119 265 119q209 0 324.5 -138t115.5 -378q0 -242 -122.5 -381.5t-336.5 -139.5q-101 0 -186 39l-55 25v-461q0 -22 -23 -22h-182q-23 0 -23 22zM362 248l62 -29 q72 -35 168 -35q117 0 182.5 83t65.5 231q0 146 -64 228.5t-178 82.5q-113 0 -174.5 -83t-61.5 -222v-256z" />
<glyph unicode="&#xff;" horiz-adv-x="1132" d="M68 967q-4 12 1 19t17 7h190q17 0 27 -16l162 -387q64 -168 84 -299q3 -15 16 -15t17 17q26 141 88 297l159 387q10 16 27 16h191q28 0 18 -26l-563 -1389q-6 -18 -25 -18h-188q-12 0 -17.5 7t-1.5 19l109 258q27 72 30 142.5t-13.5 144t-55.5 174.5zM252 1358 q0 60 33.5 94.5t91.5 34.5q60 0 93.5 -34.5t33.5 -94.5q0 -64 -33 -97.5t-94 -33.5q-59 0 -92 33.5t-33 97.5zM614 1358q0 60 33.5 94.5t91.5 34.5q60 0 93.5 -34.5t33.5 -94.5q0 -64 -33 -97.5t-94 -33.5q-59 0 -92 33.5t-33 97.5z" />
<glyph unicode="&#x131;" horiz-adv-x="573" d="M86 813v158q0 22 23 22h305q22 0 22 -22v-948q0 -23 -22 -23h-183q-22 0 -22 23v768h-100q-23 0 -23 22z" />
<glyph unicode="&#x152;" horiz-adv-x="2166" d="M104 715q0 342 164 539.5t447 197.5q233 0 368 -149q43 -43 43 16v90q0 23 23 23h905q12 0 18 -7t3 -18l-45 -164q-6 -18 -27 -18h-680v-387h571q23 0 23 -23v-160q0 -22 -23 -22h-571v-426h731q23 0 23 -23v-161q0 -23 -23 -23h-905q-23 0 -23 23v96q0 53 -43 10 q-131 -152 -368 -152q-282 0 -446.5 198t-164.5 540zM340 715q0 -247 100 -386t275 -139q183 0 279 131.5t96 393.5q0 264 -95.5 395t-279.5 131q-175 0 -275 -139t-100 -387z" />
<glyph unicode="&#x153;" horiz-adv-x="1761" d="M88 498q0 239 125.5 377.5t347.5 138.5q228 0 340 -176q19 -28 37 0q117 176 344 176q184 0 287.5 -88t103.5 -242q0 -117 -76 -184t-235 -92l-305 -50q13 -77 76.5 -125.5t148.5 -48.5q90 0 176 21l80 20q23 6 29 -16l41 -154q6 -21 -17 -28l-88 -23q-106 -27 -221 -27 q-227 0 -344 179q-18 28 -37 0q-114 -179 -340 -179q-221 0 -347 140t-126 381zM313 498q0 -147 65 -230.5t183 -83.5q117 0 182.5 83.5t65.5 230.5q0 145 -65.5 228t-182.5 83q-118 0 -183 -82.5t-65 -228.5zM1038 537l297 47q117 21 117 100q0 57 -44 91t-122 34 q-110 0 -174 -68.5t-74 -203.5z" />
<glyph unicode="&#x178;" horiz-adv-x="1380" d="M71.5 1424q4.5 8 16.5 8h207q18 0 27 -15l221 -366q70 -118 131 -277q6 -15 17.5 -15t15.5 15q50 130 131 277l223 366q9 15 26 15h207q12 0 17 -8t-2 -19l-303 -512q-66 -119 -92 -170t-57 -128.5t-40.5 -143t-9.5 -152.5v-276q0 -23 -23 -23h-188q-23 0 -23 23v276 q0 88 -9.5 154t-38.5 140.5t-57.5 130t-92.5 169.5l-301 512q-7 11 -2.5 19zM360 1716q0 62 35.5 94.5t102.5 32.5q65 0 100 -33t35 -94t-35 -93t-100 -32q-138 0 -138 125zM748 1716q0 62 35 94.5t102 32.5q65 0 100 -33t35 -94t-35 -93t-100 -32q-137 0 -137 125z" />
<glyph unicode="&#x2c6;" horiz-adv-x="839" d="M113.5 1169.5q-3.5 8.5 5.5 18.5l190 266q11 14 27 14h168q15 0 26 -14l191 -266q9 -10 5.5 -18.5t-17.5 -8.5h-138q-16 0 -26 13l-125 141l-125 -141q-10 -13 -27 -13h-137q-14 0 -17.5 8.5z" />
<glyph unicode="&#x2c7;" horiz-adv-x="839" d="M113.5 1460q3.5 8 17.5 8h137q18 0 27 -12l125 -141l125 141q9 12 26 12h138q14 0 17.5 -8t-5.5 -18l-191 -266q-12 -15 -26 -15h-168q-15 0 -27 15l-190 266q-9 10 -5.5 18z" />
<glyph unicode="&#x2d8;" horiz-adv-x="741" d="M98 1397v49q0 22 23 22h119q22 0 22 -22v-51q0 -48 28.5 -74.5t80.5 -26.5t80 26.5t28 74.5v51q0 22 23 22h119q22 0 22 -22v-49q0 -119 -71.5 -185.5t-200.5 -66.5q-128 0 -200.5 67t-72.5 185z" />
<glyph unicode="&#x2d9;" horiz-adv-x="444" d="M88 1348q0 65 35 101t98 36t99 -36.5t36 -100.5q0 -67 -35.5 -103.5t-99.5 -36.5q-63 0 -98 36.5t-35 103.5z" />
<glyph unicode="&#x2da;" horiz-adv-x="550" d="M88 1315q0 80 49.5 126t138.5 46t139 -46t50 -126t-50 -125t-139 -45t-138.5 45t-49.5 125zM195 1315q0 -34 21 -53t60 -19t60.5 19t21.5 53t-21 52.5t-61 18.5q-81 0 -81 -71z" />
<glyph unicode="&#x2db;" horiz-adv-x="567" d="M80 -289q0 86 65 148l70 69q22 19 28.5 36.5t-3.5 25.5q-8 8 -7 9t11 1h172q23 0 20 -23q-5 -38 -63 -90l-94 -90q-25 -25 -25 -53q0 -43 45 -43q23 0 57 12l21 6q18 9 29 -12l36 -113q9 -21 -14 -28l-31 -10q-49 -19 -102 -19q-99 0 -157 46t-58 128z" />
<glyph unicode="&#x2dc;" horiz-adv-x="866" d="M111 1274l47 94q28 57 66 83t95 26q58 0 109 -33l76 -47q24 -15 41 -15q23 0 45 37l20 33q8 16 27 16h102q14 0 18.5 -7t-1.5 -19l-47 -94q-53 -107 -162 -107q-57 0 -113 37l-72 39q-24 18 -43 18q-23 0 -43 -35l-20 -36q-8 -17 -27 -17h-102q-26 0 -16 27z" />
<glyph unicode="&#x2dd;" horiz-adv-x="847" d="M109 1186l79 264q6 18 27 18h160q28 0 18 -26l-102 -262q-6 -19 -25 -19h-139q-12 0 -17 7.5t-1 17.5zM432 1188l98 262q6 18 25 18h164q12 0 17 -7t-1 -19l-121 -264q-10 -17 -26 -17h-137q-29 0 -19 27z" />
<glyph unicode="&#x2000;" horiz-adv-x="939" />
<glyph unicode="&#x2001;" horiz-adv-x="1878" />
<glyph unicode="&#x2002;" horiz-adv-x="939" />
<glyph unicode="&#x2003;" horiz-adv-x="1878" />
<glyph unicode="&#x2004;" horiz-adv-x="626" />
<glyph unicode="&#x2005;" horiz-adv-x="469" />
<glyph unicode="&#x2006;" horiz-adv-x="313" />
<glyph unicode="&#x2007;" horiz-adv-x="313" />
<glyph unicode="&#x2008;" horiz-adv-x="234" />
<glyph unicode="&#x2009;" horiz-adv-x="159" />
<glyph unicode="&#x200a;" horiz-adv-x="104" />
<glyph unicode="&#x2013;" horiz-adv-x="1402" d="M152 457v157q0 23 22 23h1057q22 0 22 -23v-157q0 -23 -22 -23h-1057q-22 0 -22 23z" />
<glyph unicode="&#x2014;" horiz-adv-x="1673" d="M152 457v157q0 23 22 23h1325q23 0 23 -23v-157q0 -23 -23 -23h-1325q-22 0 -22 23z" />
<glyph unicode="&#x2018;" horiz-adv-x="473" d="M96 1184q0 -74 37.5 -115t104.5 -41q66 0 103.5 36.5t37.5 100.5q0 85 -74 123q-17 7 -23.5 15.5t-3 20.5t18.5 30l88 116h-137l-66 -86q-86 -109 -86 -200z" />
<glyph unicode="&#x2019;" horiz-adv-x="473" d="M88 1038h137l66 86q86 109 86 201q0 74 -37 115t-104 41q-66 0 -104 -37t-38 -101q0 -84 74 -122q17 -7 23.5 -15.5t3 -20.5t-18.5 -30z" />
<glyph unicode="&#x201a;" horiz-adv-x="473" d="M88 -170h137l66 86q86 109 86 201q0 74 -37 114.5t-104 40.5q-66 0 -104 -36.5t-38 -100.5q0 -85 74 -123q17 -7 23.5 -15.5t3 -20t-18.5 -29.5z" />
<glyph unicode="&#x201c;" horiz-adv-x="856" d="M96 1184q0 -74 37.5 -115t104.5 -41q66 0 103.5 36.5t37.5 100.5q0 85 -74 123q-17 7 -23.5 15.5t-3 20.5t18.5 30l88 116h-137l-66 -86q-86 -109 -86 -200zM481 1184q0 -74 37.5 -115t104.5 -41q66 0 103.5 36.5t37.5 100.5q0 85 -74 123q-17 7 -23.5 15.5t-3 20.5 t18.5 30l88 116h-137l-66 -86q-86 -109 -86 -200z" />
<glyph unicode="&#x201d;" horiz-adv-x="858" d="M88 1038h137l66 86q86 109 86 201q0 74 -37 115t-104 41q-66 0 -104 -37t-38 -101q0 -84 74 -122q17 -7 23.5 -15.5t3 -20.5t-18.5 -30zM473 1038h137l66 86q86 109 86 201q0 74 -37 115t-104 41q-66 0 -104 -37t-38 -101q0 -84 74 -122q17 -7 23.5 -15.5t3 -20.5 t-18.5 -30z" />
<glyph unicode="&#x201e;" horiz-adv-x="858" d="M88 -170h137l66 86q86 109 86 201q0 74 -37 114.5t-104 40.5q-66 0 -104 -36.5t-38 -100.5q0 -85 74 -123q17 -7 23.5 -15.5t3 -20t-18.5 -29.5zM473 -170h137l66 86q86 109 86 201q0 74 -37 114.5t-104 40.5q-66 0 -104 -36.5t-38 -100.5q0 -85 74 -123 q17 -7 23.5 -15.5t3 -20t-18.5 -29.5z" />
<glyph unicode="&#x2020;" horiz-adv-x="925" d="M113 1016v110q0 23 22 23h244v297q0 22 22 22h123q23 0 23 -22v-297h246q22 0 22 -23v-110q0 -23 -22 -23h-246v-674q0 -22 -23 -22h-123q-22 0 -22 22v674h-244q-22 0 -22 23z" />
<glyph unicode="&#x2021;" horiz-adv-x="925" d="M113 1016v110q0 23 22 23h244v297q0 22 22 22h123q23 0 23 -22v-297h246q22 0 22 -23v-110q0 -23 -22 -23h-246v-209h237q23 0 23 -22v-111q0 -22 -23 -22h-237v-310q0 -22 -23 -22h-123q-22 0 -22 22v310h-240q-22 0 -22 22v111q0 22 22 22h240v209h-244q-22 0 -22 23z " />
<glyph unicode="&#x2022;" horiz-adv-x="813" d="M178 713q0 116 60 179.5t168 63.5q110 0 169.5 -63t59.5 -180q0 -114 -59.5 -176t-169.5 -62q-108 0 -168 62t-60 176z" />
<glyph unicode="&#x2026;" horiz-adv-x="1296" d="M119 125q0 69 37 108t104 39t105 -39t38 -108t-38 -108.5t-105 -39.5t-104 39.5t-37 108.5zM516 125q0 69 37 108t104 39q68 0 106 -39t38 -108t-38.5 -108.5t-105.5 -39.5t-104 39.5t-37 108.5zM913 125q0 69 37.5 108t104.5 39t105 -39t38 -108t-38 -108.5t-105 -39.5 t-104.5 39.5t-37.5 108.5z" />
<glyph unicode="&#x202f;" horiz-adv-x="375" />
<glyph unicode="&#x2030;" horiz-adv-x="2291" d="M100 1124q0 146 84.5 229t227.5 83t227 -83t84 -229q0 -145 -84.5 -228t-226.5 -83t-227 83t-85 228zM218 8q-5 8 3 19l936 1372q11 14 27 14h157q13 0 18 -8.5t-3 -18.5l-936 -1372q-11 -14 -27 -14h-157q-13 0 -18 8zM276 1124q0 -67 36.5 -108t99.5 -41q62 0 98.5 41 t36.5 108q0 72 -36 111t-99 39q-65 0 -100.5 -39t-35.5 -111zM856 289q0 145 83.5 227t227.5 82t227 -82t83 -227q0 -146 -83.5 -229t-226.5 -83t-227 83.5t-84 228.5zM1032 289q0 -67 36.5 -107.5t98.5 -40.5q64 0 100 40.5t36 107.5q0 69 -35.5 107t-100.5 38 q-63 0 -99 -38t-36 -107zM1589 289q0 145 84 227t228 82t227.5 -82t83.5 -227t-84 -228.5t-227 -83.5t-227.5 83.5t-84.5 228.5zM1765 289q0 -67 37 -107.5t99 -40.5q64 0 99.5 40t35.5 108q0 69 -35.5 107t-99.5 38q-62 0 -99 -38.5t-37 -106.5z" />
<glyph unicode="&#x2039;" horiz-adv-x="794" d="M139 496v6q0 17 8 28l250 342q12 15 27 15h197q15 0 19 -8.5t-5 -18.5l-262 -362l262 -363q9 -11 5 -18.5t-19 -7.5h-193q-16 0 -27 14l-254 344q-8 11 -8 29z" />
<glyph unicode="&#x203a;" horiz-adv-x="794" d="M155 116.5q-4 7.5 5 18.5l262 363l-262 362q-9 10 -5 18.5t19 8.5h197q14 0 26 -15l250 -342q8 -11 8 -28v-6q0 -18 -8 -29l-254 -344q-11 -14 -26 -14h-193q-15 0 -19 7.5z" />
<glyph unicode="&#x2044;" horiz-adv-x="571" d="M-263.5 8q-4.5 8 3.5 19l909 1390q12 15 29 15h135q13 0 17.5 -8t-3.5 -19l-909 -1391q-11 -14 -29 -14h-135q-13 0 -17.5 8z" />
<glyph unicode="&#x205f;" horiz-adv-x="469" />
<glyph unicode="&#x20ac;" horiz-adv-x="1406" d="M84 526v113q0 23 22 23h146l-2 55q0 49 2 74h-146q-22 0 -22 22v113q0 22 22 22h166q53 238 211 371t396 133q91 0 157 -10t142 -37l90 -31q20 -7 14 -26l-53 -158q-7 -21 -27 -14l-92 30q-93 32 -231 35q-136 0 -229.5 -76t-135.5 -217h465q28 0 18 -26l-45 -113 q-6 -18 -24 -18h-441q-2 -25 -2 -74l2 -55h390q28 0 18 -27l-43 -113q-6 -18 -25 -18h-317q37 -151 132.5 -232.5t236.5 -81.5q126 0 233 37l90 31q19 6 29 -14l55 -154q10 -22 -14 -29l-90 -30q-85 -30 -151.5 -42t-151.5 -12q-243 0 -402 139t-207 388h-164q-22 0 -22 22z " />
<glyph unicode="&#x20ba;" horiz-adv-x="1429" d="M88 377v129q0 16 16 26l224 107v154l-213 -103q-12 -4 -19.5 0.5t-7.5 16.5v131q0 16 16 26l224 107v438q0 23 22 23h191q22 0 22 -23v-326l309 150q27 10 27 -16v-132q0 -16 -16 -26l-320 -154v-153l309 149q27 10 27 -16v-131q0 -17 -16 -27l-320 -152v-364 q234 2 377 102t150 273q0 22 22 22h191q22 0 22 -22q-5 -183 -101 -316.5t-266 -202t-395 -67.5h-213q-22 0 -22 23v440l-213 -103q-12 -4 -19.5 0.5t-7.5 16.5z" />
<glyph unicode="&#x2122;" horiz-adv-x="1892" d="M49 1296v113q0 23 23 23h671q23 0 23 -23v-113q0 -22 -23 -22h-254v-621q0 -22 -22 -22h-123q-22 0 -22 22v621h-250q-23 0 -23 22zM905 653v756q0 23 23 23h194q19 0 25 -19q5 -13 17 -39t16 -35l88 -184q5 -14 30.5 -79.5t32.5 -92.5q7 -20 17 0q12 48 65 172l88 184 q8 26 27 74q6 19 24 19h199q23 0 23 -23v-756q0 -22 -23 -22h-123q-22 0 -22 22v275q0 175 16 264q3 12 -5.5 15t-12.5 -9q-6 -16 -21.5 -49t-19.5 -43l-105 -223q-6 -14 -19.5 -44.5t-19.5 -43.5q-6 -19 -24 -19h-113q-19 0 -25 19q-16 42 -36 88l-105 223q-8 21 -43 92 q-6 12 -13 9t-5 -15q18 -100 18 -264v-275q0 -22 -22 -22h-123q-23 0 -23 22z" />
<glyph unicode="&#x25fc;" horiz-adv-x="993" d="M0 0v993h993v-993h-993z" />
</font>
</defs></svg> 